test_run_dir/should_test_Accumulator_Array/Accumulator_Array.vcd
$date
2022-12-15T08:21+0000
$end
$version
0.2
$end
$comment

$end
$timescale 1ns  $end
$scope module Accumulator_Array $end
 $var wire 16 ! Acc_Buffer_3_0 $end
 $var wire 16 " Acc_Buffer_3_3 $end
 $var wire 16 # Acc_Buffer_3_4 $end
 $var wire 16 $ Acc_Buffer_3_1 $end
 $var wire 16 % Acc_Buffer_3_2 $end
 $var wire 16 & Acc_Buffer_3_7 $end
 $var wire 16 ' Acc_Buffer_3_5 $end
 $var wire 16 ( Acc_Buffer_3_6 $end
 $var wire 32 ) Acc_Result_7_5 $end
 $var wire 32 * Acc_Result_7_4 $end
 $var wire 32 + Acc_Result_7_7 $end
 $var wire 32 , Acc_Result_7_6 $end
 $var wire 32 - Acc_Result_7_1 $end
 $var wire 32 . Acc_Result_7_0 $end
 $var wire 32 / Acc_Result_7_3 $end
 $var wire 32 0 Acc_Result_7_2 $end
 $var wire 1 1 io_isdone $end
 $var wire 16 2 Acc_Buffer_7_0 $end
 $var wire 16 3 Acc_Buffer_7_3 $end
 $var wire 16 4 Acc_Buffer_7_4 $end
 $var wire 16 5 Acc_Buffer_7_1 $end
 $var wire 16 6 Acc_Buffer_7_2 $end
 $var wire 16 7 Acc_Buffer_7_7 $end
 $var wire 16 8 Acc_Buffer_7_5 $end
 $var wire 16 9 Acc_Buffer_7_6 $end
 $var wire 1 : io_in_compute_done $end
 $var wire 32 ; io_out_sum_5 $end
 $var wire 32 < io_out_sum_4 $end
 $var wire 32 = io_out_sum_3 $end
 $var wire 32 > io_out_sum_2 $end
 $var wire 32 ? io_out_sum_1 $end
 $var wire 32 @ io_out_sum_0 $end
 $var wire 32 A io_out_sum_9 $end
 $var wire 32 B io_out_sum_8 $end
 $var wire 32 C io_out_sum_7 $end
 $var wire 32 D io_out_sum_6 $end
 $var wire 32 E Acc_Result_3_5 $end
 $var wire 32 F Acc_Result_3_4 $end
 $var wire 32 G Acc_Result_3_7 $end
 $var wire 32 H Acc_Result_3_6 $end
 $var wire 32 I Acc_Result_3_1 $end
 $var wire 32 J Acc_Result_3_0 $end
 $var wire 32 K Acc_Result_3_3 $end
 $var wire 32 L Acc_Result_3_2 $end
 $var wire 16 M Acc_Buffer_4_2 $end
 $var wire 16 N Acc_Buffer_4_3 $end
 $var wire 16 O Acc_Buffer_4_0 $end
 $var wire 16 P Acc_Buffer_4_1 $end
 $var wire 16 Q Acc_Buffer_4_6 $end
 $var wire 16 R Acc_Buffer_4_7 $end
 $var wire 16 S Acc_Buffer_4_4 $end
 $var wire 16 T Acc_Buffer_4_5 $end
 $var wire 1 U io_in_acc $end
 $var wire 32 V Acc_Result_2_6 $end
 $var wire 32 W Acc_Result_2_5 $end
 $var wire 32 X Acc_Result_2_7 $end
 $var wire 32 Y Acc_Result_2_2 $end
 $var wire 32 Z Acc_Result_2_1 $end
 $var wire 32 [ Acc_Result_2_4 $end
 $var wire 32 \ Acc_Result_2_3 $end
 $var wire 16 ] Acc_Buffer_0_2 $end
 $var wire 16 ^ Acc_Buffer_0_3 $end
 $var wire 16 _ Acc_Buffer_0_0 $end
 $var wire 16 ` Acc_Buffer_0_1 $end
 $var wire 16 a Acc_Buffer_0_6 $end
 $var wire 16 b Acc_Buffer_0_7 $end
 $var wire 16 c Acc_Buffer_0_4 $end
 $var wire 16 d Acc_Buffer_0_5 $end
 $var wire 32 e Acc_Result_6_6 $end
 $var wire 32 f Acc_Result_6_5 $end
 $var wire 32 g Acc_Result_6_7 $end
 $var wire 32 h Acc_Result_6_2 $end
 $var wire 32 i Acc_Result_6_1 $end
 $var wire 32 j Acc_Result_6_4 $end
 $var wire 32 k Acc_Result_6_3 $end
 $var wire 32 l Acc_Result_6_0 $end
 $var wire 32 m Acc_Result_2_0 $end
 $var wire 1 n io_valid $end
 $var wire 16 o Acc_Buffer_1_1 $end
 $var wire 16 p Acc_Buffer_1_2 $end
 $var wire 16 q Acc_Buffer_1_0 $end
 $var wire 16 r Acc_Buffer_1_5 $end
 $var wire 16 s Acc_Buffer_1_6 $end
 $var wire 16 t Acc_Buffer_1_3 $end
 $var wire 16 u Acc_Buffer_1_4 $end
 $var wire 16 v Acc_Buffer_1_7 $end
 $var wire 1 w clock $end
 $var wire 16 x Acc_Buffer_5_1 $end
 $var wire 16 y Acc_Buffer_5_2 $end
 $var wire 16 z Acc_Buffer_5_0 $end
 $var wire 16 { Acc_Buffer_5_5 $end
 $var wire 16 | Acc_Buffer_5_6 $end
 $var wire 16 } Acc_Buffer_5_3 $end
 $var wire 16 ~ Acc_Buffer_5_4 $end
 $var wire 16 "! Acc_Buffer_5_7 $end
 $var wire 32 "" Acc_Result_1_7 $end
 $var wire 32 "# Acc_Result_1_6 $end
 $var wire 32 "$ Acc_Result_1_3 $end
 $var wire 32 "% Acc_Result_1_2 $end
 $var wire 32 "& Acc_Result_1_5 $end
 $var wire 32 "' Acc_Result_1_4 $end
 $var wire 32 "( Acc_Result_1_1 $end
 $var wire 32 ") Acc_Result_1_0 $end
 $var wire 4 "* valid_counter_0 $end
 $var wire 4 "+ valid_counter_1 $end
 $var wire 4 ", valid_counter_2 $end
 $var wire 4 "- valid_counter_3 $end
 $var wire 4 ". valid_counter_4 $end
 $var wire 4 "/ valid_counter_5 $end
 $var wire 4 "0 valid_counter_6 $end
 $var wire 4 "1 valid_counter_7 $end
 $var wire 32 "2 Acc_Result_5_7 $end
 $var wire 32 "3 Acc_Result_5_6 $end
 $var wire 32 "4 Acc_Result_5_3 $end
 $var wire 32 "5 Acc_Result_5_2 $end
 $var wire 32 "6 Acc_Result_5_5 $end
 $var wire 32 "7 Acc_Result_5_4 $end
 $var wire 32 "8 Acc_Result_5_1 $end
 $var wire 32 "9 Acc_Result_5_0 $end
 $var wire 4 ": acc_counter $end
 $var wire 1 "; reset $end
 $var wire 32 "< io_out_sum_11 $end
 $var wire 32 "= io_out_sum_12 $end
 $var wire 32 "> io_out_sum_10 $end
 $var wire 32 "? io_out_sum_22 $end
 $var wire 32 "@ io_out_sum_23 $end
 $var wire 32 "A io_out_sum_20 $end
 $var wire 32 "B io_out_sum_21 $end
 $var wire 32 "C io_out_sum_15 $end
 $var wire 32 "D io_out_sum_16 $end
 $var wire 32 "E io_out_sum_13 $end
 $var wire 32 "F io_out_sum_14 $end
 $var wire 32 "G io_out_sum_19 $end
 $var wire 32 "H io_out_sum_17 $end
 $var wire 32 "I io_out_sum_18 $end
 $var wire 32 "J io_out_sum_30 $end
 $var wire 32 "K io_out_sum_33 $end
 $var wire 32 "L io_out_sum_34 $end
 $var wire 32 "M io_out_sum_31 $end
 $var wire 32 "N io_out_sum_32 $end
 $var wire 32 "O io_out_sum_26 $end
 $var wire 32 "P io_out_sum_27 $end
 $var wire 32 "Q io_out_sum_24 $end
 $var wire 32 "R io_out_sum_25 $end
 $var wire 32 "S io_out_sum_28 $end
 $var wire 32 "T io_out_sum_29 $end
 $var wire 32 "U io_out_sum_40 $end
 $var wire 32 "V io_out_sum_41 $end
 $var wire 32 "W io_out_sum_44 $end
 $var wire 32 "X io_out_sum_45 $end
 $var wire 32 "Y io_out_sum_42 $end
 $var wire 32 "Z io_out_sum_43 $end
 $var wire 32 "[ io_out_sum_37 $end
 $var wire 32 "\ io_out_sum_38 $end
 $var wire 32 "] io_out_sum_35 $end
 $var wire 32 "^ io_out_sum_36 $end
 $var wire 32 "_ io_out_sum_39 $end
 $var wire 32 "` io_out_sum_51 $end
 $var wire 32 "a io_out_sum_52 $end
 $var wire 32 "b io_out_sum_50 $end
 $var wire 32 "c io_out_sum_55 $end
 $var wire 32 "d io_out_sum_56 $end
 $var wire 32 "e io_out_sum_53 $end
 $var wire 32 "f io_out_sum_54 $end
 $var wire 32 "g io_out_sum_48 $end
 $var wire 32 "h io_out_sum_49 $end
 $var wire 32 "i io_out_sum_46 $end
 $var wire 32 "j io_out_sum_47 $end
 $var wire 32 "k io_out_sum_62 $end
 $var wire 32 "l io_out_sum_63 $end
 $var wire 32 "m io_out_sum_60 $end
 $var wire 32 "n io_out_sum_61 $end
 $var wire 32 "o io_out_sum_59 $end
 $var wire 32 "p io_out_sum_57 $end
 $var wire 32 "q io_out_sum_58 $end
 $var wire 16 "r Acc_Buffer_2_0 $end
 $var wire 16 "s Acc_Buffer_2_1 $end
 $var wire 16 "t Acc_Buffer_2_4 $end
 $var wire 16 "u Acc_Buffer_2_5 $end
 $var wire 16 "v Acc_Buffer_2_2 $end
 $var wire 16 "w Acc_Buffer_2_3 $end
 $var wire 16 "x Acc_Buffer_2_6 $end
 $var wire 16 "y Acc_Buffer_2_7 $end
 $var wire 1 "z io_in_valid_2 $end
 $var wire 1 "{ io_in_valid_3 $end
 $var wire 1 "| io_in_valid_0 $end
 $var wire 1 "} io_in_valid_1 $end
 $var wire 1 "~ io_in_valid_6 $end
 $var wire 1 #! io_in_valid_7 $end
 $var wire 1 #" io_in_valid_4 $end
 $var wire 1 ## io_in_valid_5 $end
 $var wire 16 #$ io_in_psum_7 $end
 $var wire 16 #% io_in_psum_3 $end
 $var wire 16 #& io_in_psum_4 $end
 $var wire 16 #' io_in_psum_5 $end
 $var wire 16 #( io_in_psum_6 $end
 $var wire 16 #) io_in_psum_0 $end
 $var wire 16 #* io_in_psum_1 $end
 $var wire 16 #+ io_in_psum_2 $end
 $var wire 16 #, Acc_Buffer_6_0 $end
 $var wire 16 #- Acc_Buffer_6_1 $end
 $var wire 16 #. Acc_Buffer_6_4 $end
 $var wire 16 #/ Acc_Buffer_6_5 $end
 $var wire 16 #0 Acc_Buffer_6_2 $end
 $var wire 16 #1 Acc_Buffer_6_3 $end
 $var wire 16 #2 Acc_Buffer_6_6 $end
 $var wire 16 #3 Acc_Buffer_6_7 $end
 $var wire 32 #4 Acc_Result_0_0 $end
 $var wire 32 #5 Acc_Result_0_2 $end
 $var wire 32 #6 Acc_Result_0_1 $end
 $var wire 32 #7 Acc_Result_0_7 $end
 $var wire 32 #8 Acc_Result_0_4 $end
 $var wire 32 #9 Acc_Result_0_3 $end
 $var wire 32 #: Acc_Result_0_6 $end
 $var wire 32 #; Acc_Result_0_5 $end
 $var wire 32 #< Acc_Result_4_7 $end
 $var wire 32 #= Acc_Result_4_4 $end
 $var wire 32 #> Acc_Result_4_3 $end
 $var wire 32 #? Acc_Result_4_6 $end
 $var wire 32 #@ Acc_Result_4_5 $end
 $var wire 32 #A Acc_Result_4_0 $end
 $var wire 32 #B Acc_Result_4_2 $end
 $var wire 32 #C Acc_Result_4_1 $end
$upscope $end
$enddefinitions $end
$dumpvars
b0000000000000000 !
b00000000000000000000000000000000 +
01
b00000000000000000000000000000000 *
b00000000000000000000000000000000 -
b00000000000000000000000000000000 ,
b0000000000000000 %
b0000000000000000 $
b0000000000000000 #
b00000000000000000000000000000000 )
b0000000000000000 "
b0000000000000000 (
b0000000000000000 '
0:
b0000000000000000 &
b00000000000000000000000000000000 ;
b00000000000000000000000000000000 =
b00000000000000000000000000000000 <
b0000000000000000 5
b0000000000000000 4
b0000000000000000 3
b0000000000000000 2
b0000000000000000 9
b0000000000000000 8
b0000000000000000 7
b0000000000000000 6
b00000000000000000000000000000000 /
b00000000000000000000000000000000 .
b00000000000000000000000000000000 0
0U
b0000000000000000 "!
0n
0w
b0000000000000000 #$
b0000000000000000 #%
b0000000000000000 #&
b0000000000000000 #'
b0000000000000000 #(
b0000000000000000 #)
b0000000000000000 #*
b0000000000000000 #+
b0000000000000000 #,
b0000000000000000 #-
b0000000000000000 #.
b0000000000000000 #/
b0000000000000000 #0
b0000000000000000 #1
b0000000000000000 #2
b0000000000000000 #3
0";
0#!
0#"
0##
b00000000000000000000000000000000 "o
b00000000000000000000000000000000 "n
b00000000000000000000000000000000 "m
b00000000000000000000000000000000 "l
b00000000000000000000000000000000 "q
b00000000000000000000000000000000 "p
b00000000000000000000000000000000 "g
0"z
b00000000000000000000000000000000 "f
0"{
b00000000000000000000000000000000 "e
0"|
b00000000000000000000000000000000 "d
0"}
b00000000000000000000000000000000 "k
0"~
b00000000000000000000000000000000 "j
b00000000000000000000000000000000 "i
b00000000000000000000000000000000 "h
b00000000000000000000000000000000 "3
b00000000000000000000000000000000 "2
b00000000000000000000000000000000 "'
b00000000000000000000000000000000 "&
b00000000000000000000000000000000 "%
b00000000000000000000000000000000 "$
b00000000000000000000000000000000 ")
b00000000000000000000000000000000 "(
b00000000000000000000000000000000 "?
b00000000000000000000000000000000 ">
b00000000000000000000000000000000 "=
b00000000000000000000000000000000 "<
b00000000000000000000000000000000 "C
b00000000000000000000000000000000 "B
b00000000000000000000000000000000 "A
b00000000000000000000000000000000 "@
b00000000000000000000000000000000 "7
b00000000000000000000000000000000 "6
b00000000000000000000000000000000 "5
b00000000000000000000000000000000 "4
b00000000000000000000000000000000 "9
b00000000000000000000000000000000 "8
b00000000000000000000000000000000 "O
b00000000000000000000000000000000 "N
b00000000000000000000000000000000 "M
b00000000000000000000000000000000 "L
b00000000000000000000000000000000 "S
b00000000000000000000000000000000 #4
b00000000000000000000000000000000 "R
b00000000000000000000000000000000 "Q
b00000000000000000000000000000000 "P
b00000000000000000000000000000000 "G
b00000000000000000000000000000000 "F
b00000000000000000000000000000000 "E
b00000000000000000000000000000000 "D
b00000000000000000000000000000000 "K
b00000000000000000000000000000000 "J
b00000000000000000000000000000000 "I
b00000000000000000000000000000000 "H
b00000000000000000000000000000000 "_
b00000000000000000000000000000000 #@
b00000000000000000000000000000000 "^
b00000000000000000000000000000000 #?
b00000000000000000000000000000000 "]
b00000000000000000000000000000000 #>
b00000000000000000000000000000000 "\
b00000000000000000000000000000000 #=
b00000000000000000000000000000000 "c
b00000000000000000000000000000000 "b
b00000000000000000000000000000000 #C
b00000000000000000000000000000000 "a
b00000000000000000000000000000000 #B
b00000000000000000000000000000000 "`
b00000000000000000000000000000000 #A
b00000000000000000000000000000000 "W
b00000000000000000000000000000000 #8
b00000000000000000000000000000000 "V
b00000000000000000000000000000000 #7
b00000000000000000000000000000000 "U
b00000000000000000000000000000000 #6
b00000000000000000000000000000000 "T
b00000000000000000000000000000000 #5
b00000000000000000000000000000000 "[
b00000000000000000000000000000000 #<
b00000000000000000000000000000000 "Z
b00000000000000000000000000000000 #;
b00000000000000000000000000000000 "Y
b00000000000000000000000000000000 #:
b00000000000000000000000000000000 "X
b00000000000000000000000000000000 #9
b00000000000000000000000000000000 "#
b00000000000000000000000000000000 ""
b0000000000000000 "t
b0000000000000000 "u
b0000000000000000 "v
b0000000000000000 "w
b0000000000000000 "x
b0000000000000000 "y
b0000000000000000 "r
b0000000000000000 "s
b0000000000000000 ~
b0000000000000000 a
b00000000000000000000000000000000 k
b0000000000000000 `
b00000000000000000000000000000000 j
b0000000000000000 _
b00000000000000000000000000000000 m
b0000000000000000 ^
b00000000000000000000000000000000 l
b00000000000000000000000000000000 g
b0000000000000000 d
b00000000000000000000000000000000 f
b0000000000000000 c
b0000 "+
b00000000000000000000000000000000 i
b0000000000000000 b
b0000 "*
b00000000000000000000000000000000 h
b0000 "-
b0000 ",
b0000 "/
b00000000000000000000000000000000 e
b0000 ".
b0000 "1
b0000 "0
b0000000000000000 q
b0000000000000000 p
b0000000000000000 o
b0000000000000000 u
b0000000000000000 t
b0000000000000000 s
b0000000000000000 r
b0000 ":
b0000000000000000 y
b0000000000000000 x
b0000000000000000 v
b0000000000000000 }
b0000000000000000 |
b0000000000000000 {
b0000000000000000 z
b00000000000000000000000000000000 K
b00000000000000000000000000000000 J
b00000000000000000000000000000000 L
b00000000000000000000000000000000 G
b00000000000000000000000000000000 F
b00000000000000000000000000000000 I
b00000000000000000000000000000000 H
b00000000000000000000000000000000 C
b00000000000000000000000000000000 B
b00000000000000000000000000000000 E
b00000000000000000000000000000000 D
b0000000000000000 M
b00000000000000000000000000000000 ?
b00000000000000000000000000000000 >
b00000000000000000000000000000000 A
b00000000000000000000000000000000 @
b0000000000000000 Q
b00000000000000000000000000000000 [
b0000000000000000 P
b00000000000000000000000000000000 Z
b0000000000000000 O
b0000000000000000 N
b00000000000000000000000000000000 \
b00000000000000000000000000000000 W
b0000000000000000 T
b00000000000000000000000000000000 V
b0000000000000000 S
b00000000000000000000000000000000 Y
b0000000000000000 R
b00000000000000000000000000000000 X
b0000000000000000 ]
$end
#0
1";
#1
1w
#6
b1011000011000100 #)
0w
0";
1"|
#11
1w
b0001 "*
b1011000011000100 _
#16
b1100110101000000 #)
0w
b0111101001100010 #*
1"}
#21
b0111101001100010 `
b1100110101000000 q
1w
b0010 "*
b0001 "+
#26
b1110001111011001 #)
0w
b1000100101101010 #*
b0110101100011110 #+
1"z
#31
b1110001111011001 "r
1w
b0011 "*
b0010 "+
b0001 ",
b0110101100011110 ]
b1000100101101010 o
#36
b1000010100110110 #%
b1011110001110101 #)
0w
b1000000001101100 #*
b1000011010001011 #+
1"{
#41
b1000011010001011 p
b1011110001110101 !
b1000000001101100 "s
1w
b0100 "*
b0011 "+
b0010 ",
b0001 "-
b1000010100110110 ^
#46
b1001001111110000 #%
b1001000010101010 #&
b1000001000011100 #)
0w
b0110101110100101 #*
b0111011010101101 #+
1#"
#51
b1001000010101010 c
b0110101110100101 $
b1001001111110000 t
b0111011010101101 "v
1w
b0101 "*
b0100 "+
b0011 ",
b0010 "-
b0001 ".
b1000001000011100 O
#56
1##
b1000101110100001 #%
b1100010111111101 #&
b1001011101100111 #'
b1001110011101010 #)
0w
b0100110101101000 #*
b0110100011011101 #+
#61
b1001011101100111 d
b0110100011011101 %
b0110 "*
b0101 "+
b0100 ",
b0011 "-
b0010 ".
b0001 "/
b0100110101101000 P
b1100010111111101 u
b1000101110100001 "w
1w
b1001110011101010 z
#66
b0111011001000100 #%
b1101110101110110 #&
b1101000001001111 #'
b1000111010100011 #(
b1010011001101110 #)
0w
b0100101010111000 #*
b0101010010100100 #+
1"~
#71
b1000111010100011 a
b0111011001000100 "
b0111 "*
b0110 "+
b1010011001101110 #,
b0101 ",
b0100 "-
b0011 ".
b0101010010100100 M
b0010 "/
b0001 "0
b1101000001001111 r
b1101110101110110 "t
1w
b0100101010111000 x
#76
b0111000011100000 #$
b0101000000001101 #%
b1100000011000100 #&
b1100000101100101 #'
b1001100011101001 #(
b1001110000110011 #)
0w
b0101101100000111 #*
b0100010111010011 #+
1#!
#81
b0111000011100000 b
b1100000011000100 #
b0000 "*
b0111 "+
b0110 ",
b0101101100000111 #-
b0101 "-
b0100 ".
b0011 "/
b0101000000001101 N
b0010 "0
b0001 "1
b1001110000110011 2
b1001100011101001 s
b1100000101100101 "u
1w
b0100010111010011 y
#86
b1011010010111111 #$
b0110011110101110 #%
b1000010010101100 #&
b1010111011110101 #'
b1000100111111101 #(
b0000000000000000 #)
0w
b0111010011110001 #*
b0101110001010100 #+
0"|
#91
b1010111011110101 '
b0000 "+
b0111 ",
b0110 "-
b0101 ".
b0100 "/
b0101110001010100 #0
b0011 "0
b0010 "1
b1000010010101100 S
b0111010011110001 5
b1011010010111111 v
b1000100111111101 "x
1w
b0110011110101110 }
#96
b1011001111001001 #$
b0111101101001001 #%
b1001111001001100 #&
b0111111001010110 #'
b0111110010111100 #(
0w
b0000000000000000 #*
b0111011111001110 #+
0"}
#101
b0111110010111100 (
b0000 ",
b0111 "-
b0110 ".
b0101 "/
b0100 "0
b0111101101001001 #1
b0011 "1
b0111111001010110 T
b0111011111001110 6
1w
b1011001111001001 "y
b1001111001001100 ~
#106
b1001111100101101 #$
b0111010101110110 #%
b1010100001111001 #&
b1000111100101111 #'
b0101000111111100 #(
0w
b0000000000000000 #+
0"z
#111
b0101000111111100 Q
b0111010101110110 3
b1001111100101101 &
1w
b1000111100101111 {
b0000 "-
b1010100001111001 #.
b0111 ".
b0110 "/
b0101 "0
b0100 "1
#116
b0110110001101011 #$
b0000000000000000 #%
b1000100011001000 #&
b1011100000011011 #'
b0101110010100111 #(
0w
0"{
#121
b0110110001101011 R
b1000100011001000 4
1w
b0101110010100111 |
b0000 ".
b1011100000011011 #/
b0111 "/
b0110 "0
b0101 "1
#126
b0110111111110110 #$
b0000000000000000 #&
b1010010101101010 #'
b0110000010101110 #(
0w
0#"
#131
1w
b1010010101101010 8
b0000 "/
b0111 "0
b0110111111110110 "!
b0110 "1
b0110000010101110 #2
#136
0##
b1000010000110111 #$
b0000000000000000 #'
b0110100000101101 #(
0w
#141
b1000010000110111 #3
1w
b0110100000101101 9
b0000 "0
b0111 "1
#146
b0111100100001001 #$
b0000000000000000 #(
0w
0"~
#151
b0111100100001001 7
1w
b0000 "1
#156
b0000000000000000 #$
1U
0w
0#!
#161
1w
b0001 ":
#166
0U
0w
#171
b00000000000000001011000011000100 #4
b00000000000000000110101100011110 #5
b00000000000000000111101001100010 #6
b00000000000000000111000011100000 #7
b00000000000000001001000010101010 #8
b00000000000000001000010100110110 #9
1w
b00000000000000001000111010100011 #:
b0010 ":
b00000000000000001001011101100111 #;
#176
0w
#181
b00000000000000001011010010111111 ""
b00000000000000001001100011101001 "#
b00000000000000001001001111110000 "$
b00000000000000001000011010001011 "%
b00000000000000001101000001001111 "&
b00000000000000001100010111111101 "'
b00000000000000001000100101101010 "(
1w
b00000000000000001100110101000000 ")
b0011 ":
#186
0w
#191
b00000000000000001000100111111101 V
b00000000000000001100000101100101 W
1w
b00000000000000001011001111001001 X
b0100 ":
b00000000000000000111011010101101 Y
b00000000000000001000000001101100 Z
b00000000000000001101110101110110 [
b00000000000000001000101110100001 \
b00000000000000001110001111011001 m
#196
0w
#201
b00000000000000001010111011110101 E
b00000000000000001100000011000100 F
b00000000000000001001111100101101 G
1w
b00000000000000000111110010111100 H
b0101 ":
b00000000000000000110101110100101 I
b00000000000000001011110001110101 J
b00000000000000000111011001000100 K
b00000000000000000110100011011101 L
#206
0w
#211
b00000000000000000100110101101000 #C
1w
b0110 ":
b00000000000000000110110001101011 #<
b00000000000000001000010010101100 #=
b00000000000000000101000000001101 #>
b00000000000000000101000111111100 #?
b00000000000000000111111001010110 #@
b00000000000000001000001000011100 #A
b00000000000000000101010010100100 #B
#216
0w
#221
b00000000000000000110111111110110 "2
b00000000000000000101110010100111 "3
b00000000000000000110011110101110 "4
b00000000000000000100010111010011 "5
b00000000000000001000111100101111 "6
b00000000000000001001111001001100 "7
b00000000000000000100101010111000 "8
1w
b00000000000000001001110011101010 "9
b0111 ":
#226
0w
#231
11
b00000000000000000110000010101110 e
b00000000000000001011100000011011 f
b00000000000000001000010000110111 g
1w
b00000000000000000101110001010100 h
b1000 ":
b00000000000000000101101100000111 i
b00000000000000001010100001111001 j
b00000000000000000111101101001001 k
b00000000000000001010011001101110 l
#236
0w
#241
b00000000000000000111011111001110 0
01
1w
b0000 ":
b00000000000000001010010101101010 )
b00000000000000001000100011001000 *
b00000000000000000111100100001001 +
b00000000000000000110100000101101 ,
b00000000000000000111010011110001 -
b00000000000000001001110000110011 .
b00000000000000000111010101110110 /
#246
b0101101101111010 #)
0w
1"|
#251
1w
b0001 "*
b0101101101111010 _
#256
b0100110110101111 #)
0w
b0100010110101100 #*
1"}
#261
b0100010110101100 `
b0100110110101111 q
1w
b0010 "*
b0001 "+
#266
b0101110101001011 #)
0w
b0011011100110010 #*
b0101000101000011 #+
1"z
#271
b0101110101001011 "r
1w
b0011 "*
b0010 "+
b0001 ",
b0101000101000011 ]
b0011011100110010 o
#276
b0011001101111001 #%
b1100010011100110 #)
0w
b0101011100001010 #*
b0100000011101000 #+
1"{
#281
b0100000011101000 p
b1100010011100110 !
b0101011100001010 "s
1w
b0100 "*
b0011 "+
b0010 ",
b0001 "-
b0011001101111001 ^
#286
b0010000110001110 #%
b0100110010000011 #&
b0111001010111001 #)
0w
b1010101000000110 #*
b0111110010001111 #+
1#"
#291
b0100110010000011 c
b1010101000000110 $
b0010000110001110 t
b0111110010001111 "v
1w
b0101 "*
b0100 "+
b0011 ",
b0010 "-
b0001 ".
b0111001010111001 O
#296
1##
b0100011101010100 #%
b0100111101011011 #&
b1001000111111111 #'
b1001101100101001 #)
0w
b0110100001001001 #*
b1010110001000010 #+
#301
b1001000111111111 d
b1010110001000010 %
b0110 "*
b0101 "+
b0100 ",
b0011 "-
b0010 ".
b0001 "/
b0110100001001001 P
b0100111101011011 u
b0100011101010100 "w
1w
b1001101100101001 z
#306
b1001001111000010 #%
b0110101011011011 #&
b0110100100111010 #'
b0111111000100001 #(
b0101110101011001 #)
0w
b1000010001110100 #*
b1001001110100111 #+
1"~
#311
b0111111000100001 a
b1001001111000010 "
b0111 "*
b0110 "+
b0101110101011001 #,
b0101 ",
b0100 "-
b0011 ".
b1001001110100111 M
b0010 "/
b0001 "0
b0110100100111010 r
b0110101011011011 "t
1w
b1000010001110100 x
#316
b0111100100000000 #$
b0101101011001101 #%
b1010100011111101 #&
b1010011011100100 #'
b0101010101001001 #(
b1000011001111110 #)
0w
b0111100100010001 #*
b1010101110010111 #+
1#!
#321
b0111100100000000 b
b1010100011111101 #
b0000 "*
b0111 "+
b0110 ",
b0111100100010001 #-
b0101 "-
b0100 ".
b0011 "/
b0101101011001101 N
b0010 "0
b0001 "1
b1000011001111110 2
b0101010101001001 s
b1010011011100100 "u
1w
b1010101110010111 y
#326
b0100100101100110 #$
b0101000001011011 #%
b1000000111011101 #&
b1011010111111011 #'
b0111011011110100 #(
b0000000000000000 #)
0w
b0111100110101011 #*
b1000111011100111 #+
0"|
#331
b1011010111111011 '
b0000 "+
b0111 ",
b0110 "-
b0101 ".
b0100 "/
b1000111011100111 #0
b0011 "0
b0010 "1
b1000000111011101 S
b0111100110101011 5
b0100100101100110 v
b0111011011110100 "x
1w
b0101000001011011 }
#336
b0111110011011010 #$
b0100101001000011 #%
b1001010000000111 #&
b1010111011011100 #'
b1011011011011001 #(
0w
b0000000000000000 #*
b1001010101101011 #+
0"}
#341
b1011011011011001 (
b0000 ",
b0111 "-
b0110 ".
b0101 "/
b0100 "0
b0100101001000011 #1
b0011 "1
b1010111011011100 T
b1001010101101011 6
1w
b0111110011011010 "y
b1001010000000111 ~
#346
b1110010000101000 #$
b0100100011010000 #%
b0110011111111010 #&
b1001111111111001 #'
b1000110000000001 #(
0w
b0000000000000000 #+
0"z
#351
b1000110000000001 Q
b0100100011010000 3
b1110010000101000 &
1w
b1001111111111001 {
b0000 "-
b0110011111111010 #.
b0111 ".
b0110 "/
b0101 "0
b0100 "1
#356
b1001101101010111 #$
b0000000000000000 #%
b0110111110010110 #&
b1011100001101100 #'
b1010001000010110 #(
0w
0"{
#361
b1001101101010111 R
b0110111110010110 4
1w
b1010001000010110 |
b0000 ".
b1011100001101100 #/
b0111 "/
b0110 "0
b0101 "1
#366
b1001110110111001 #$
b0000000000000000 #&
b1001110100001110 #'
b1001100000001110 #(
0w
0#"
#371
1w
b1001110100001110 8
b0000 "/
b0111 "0
b1001110110111001 "!
b0110 "1
b1001100000001110 #2
#376
0##
b1010100100110000 #$
b0000000000000000 #'
b1000101100100010 #(
0w
#381
b1010100100110000 #3
1w
b1000101100100010 9
b0000 "0
b0111 "1
#386
b1000110111010111 #$
b0000000000000000 #(
0w
0"~
#391
b1000110111010111 7
1w
b0000 "1
#396
b0000000000000000 #$
1U
0w
0#!
#401
1w
b0001 ":
#406
0U
0w
#411
b00000000000000010000110000111110 #4
b00000000000000001011110001100001 #5
b00000000000000001100000000001110 #6
b00000000000000001110100111100000 #7
b00000000000000001101110100101101 #8
b00000000000000001011100010101111 #9
1w
b00000000000000010000110011000100 #:
b0010 ":
b00000000000000010010100101100110 #;
#416
0w
#421
b00000000000000001111111000100101 ""
b00000000000000001110111000110010 "#
b00000000000000001011010101111110 "$
b00000000000000001100011101110011 "%
b00000000000000010011100110001001 "&
b00000000000000010001010101011000 "'
b00000000000000001100000010011100 "(
1w
b00000000000000010001101011101111 ")
b0011 ":
#426
0w
#431
b00000000000000010000000011110001 V
b00000000000000010110100001001001 W
1w
b00000000000000010011000010100011 X
b0100 ":
b00000000000000001111001100111100 Y
b00000000000000001101011101110110 Z
b00000000000000010100100001010001 [
b00000000000000001101001011110101 \
b00000000000000010100000100100100 m
#436
0w
#441
b00000000000000010110010011110000 E
b00000000000000010110100111000001 F
b00000000000000011000001101010101 G
1w
b00000000000000010011001110010101 H
b0101 ":
b00000000000000010001010110101011 I
b00000000000000011000000101011011 J
b00000000000000010000101000000110 K
b00000000000000010001010100011111 L
#446
0w
#451
b00000000000000001011010110110001 #C
1w
b0110 ":
b00000000000000010000011111000010 #<
b00000000000000010000011010001001 #=
b00000000000000001010101011011010 #>
b00000000000000001101110111111101 #?
b00000000000000010010110100110010 #@
b00000000000000001111010011010101 #A
b00000000000000001110100001001011 #B
#456
0w
#461
b00000000000000010000110110101111 "2
b00000000000000001111111010111101 "3
b00000000000000001011100000001001 "4
b00000000000000001111000101101010 "5
b00000000000000010010111100101000 "6
b00000000000000010011001001010011 "7
b00000000000000001100111100101100 "8
1w
b00000000000000010011100000010011 "9
b0111 ":
#466
0w
#471
11
b00000000000000001111100010111100 e
b00000000000000010111000010000111 f
b00000000000000010010110101100111 g
1w
b00000000000000001110101100111011 h
b1000 ":
b00000000000000001101010000011000 i
b00000000000000010001000001110011 j
b00000000000000001100010110001100 k
b00000000000000010000001111000111 l
#476
0w
#481
b00000000000000010000110100111001 0
01
1w
b0000 ":
b00000000000000010100001001111000 )
b00000000000000001111100001011110 *
b00000000000000010000011011100000 +
b00000000000000001111001101001111 ,
b00000000000000001110111010011100 -
b00000000000000010010001010110001 .
b00000000000000001011111001000110 /
