test_run_dir/should_test_Accumulator_Array/Accumulator_Array.vcd
$date
2022-12-13T14:36+0000
$end
$version
0.2
$end
$comment

$end
$timescale 1ns  $end
$scope module Accumulator_Array $end
 $var wire 16 ! Acc_Buffer_3_0 $end
 $var wire 16 " Acc_Buffer_3_3 $end
 $var wire 16 # Acc_Buffer_3_4 $end
 $var wire 16 $ Acc_Buffer_3_1 $end
 $var wire 16 % Acc_Buffer_3_2 $end
 $var wire 16 & Acc_Buffer_3_7 $end
 $var wire 16 ' Acc_Buffer_3_5 $end
 $var wire 16 ( Acc_Buffer_3_6 $end
 $var wire 32 ) Acc_Result_7_5 $end
 $var wire 32 * Acc_Result_7_4 $end
 $var wire 32 + Acc_Result_7_7 $end
 $var wire 32 , Acc_Result_7_6 $end
 $var wire 32 - Acc_Result_7_1 $end
 $var wire 32 . Acc_Result_7_0 $end
 $var wire 32 / Acc_Result_7_3 $end
 $var wire 32 0 Acc_Result_7_2 $end
 $var wire 1 1 io_isdone $end
 $var wire 16 2 Acc_Buffer_7_0 $end
 $var wire 16 3 Acc_Buffer_7_3 $end
 $var wire 16 4 Acc_Buffer_7_4 $end
 $var wire 16 5 Acc_Buffer_7_1 $end
 $var wire 16 6 Acc_Buffer_7_2 $end
 $var wire 16 7 Acc_Buffer_7_7 $end
 $var wire 16 8 Acc_Buffer_7_5 $end
 $var wire 16 9 Acc_Buffer_7_6 $end
 $var wire 1 : io_in_compute_done $end
 $var wire 32 ; io_out_sum_5 $end
 $var wire 32 < io_out_sum_4 $end
 $var wire 32 = io_out_sum_3 $end
 $var wire 32 > io_out_sum_2 $end
 $var wire 32 ? io_out_sum_1 $end
 $var wire 32 @ io_out_sum_0 $end
 $var wire 32 A io_out_sum_9 $end
 $var wire 32 B io_out_sum_8 $end
 $var wire 32 C io_out_sum_7 $end
 $var wire 32 D io_out_sum_6 $end
 $var wire 32 E Acc_Result_3_5 $end
 $var wire 32 F Acc_Result_3_4 $end
 $var wire 32 G Acc_Result_3_7 $end
 $var wire 32 H Acc_Result_3_6 $end
 $var wire 32 I Acc_Result_3_1 $end
 $var wire 32 J Acc_Result_3_0 $end
 $var wire 32 K Acc_Result_3_3 $end
 $var wire 32 L Acc_Result_3_2 $end
 $var wire 16 M Acc_Buffer_4_2 $end
 $var wire 16 N Acc_Buffer_4_3 $end
 $var wire 16 O Acc_Buffer_4_0 $end
 $var wire 16 P Acc_Buffer_4_1 $end
 $var wire 16 Q Acc_Buffer_4_6 $end
 $var wire 16 R Acc_Buffer_4_7 $end
 $var wire 16 S Acc_Buffer_4_4 $end
 $var wire 16 T Acc_Buffer_4_5 $end
 $var wire 1 U io_in_acc $end
 $var wire 32 V Acc_Result_2_6 $end
 $var wire 32 W Acc_Result_2_5 $end
 $var wire 32 X Acc_Result_2_7 $end
 $var wire 32 Y Acc_Result_2_2 $end
 $var wire 32 Z Acc_Result_2_1 $end
 $var wire 32 [ Acc_Result_2_4 $end
 $var wire 32 \ Acc_Result_2_3 $end
 $var wire 16 ] Acc_Buffer_0_2 $end
 $var wire 16 ^ Acc_Buffer_0_3 $end
 $var wire 16 _ Acc_Buffer_0_0 $end
 $var wire 16 ` Acc_Buffer_0_1 $end
 $var wire 16 a Acc_Buffer_0_6 $end
 $var wire 16 b Acc_Buffer_0_7 $end
 $var wire 16 c Acc_Buffer_0_4 $end
 $var wire 16 d Acc_Buffer_0_5 $end
 $var wire 32 e Acc_Result_6_6 $end
 $var wire 32 f Acc_Result_6_5 $end
 $var wire 32 g Acc_Result_6_7 $end
 $var wire 32 h Acc_Result_6_2 $end
 $var wire 32 i Acc_Result_6_1 $end
 $var wire 32 j Acc_Result_6_4 $end
 $var wire 32 k Acc_Result_6_3 $end
 $var wire 32 l Acc_Result_6_0 $end
 $var wire 32 m Acc_Result_2_0 $end
 $var wire 1 n io_valid $end
 $var wire 16 o Acc_Buffer_1_1 $end
 $var wire 16 p Acc_Buffer_1_2 $end
 $var wire 16 q Acc_Buffer_1_0 $end
 $var wire 16 r Acc_Buffer_1_5 $end
 $var wire 16 s Acc_Buffer_1_6 $end
 $var wire 16 t Acc_Buffer_1_3 $end
 $var wire 16 u Acc_Buffer_1_4 $end
 $var wire 16 v Acc_Buffer_1_7 $end
 $var wire 1 w clock $end
 $var wire 16 x Acc_Buffer_5_1 $end
 $var wire 16 y Acc_Buffer_5_2 $end
 $var wire 16 z Acc_Buffer_5_0 $end
 $var wire 16 { Acc_Buffer_5_5 $end
 $var wire 16 | Acc_Buffer_5_6 $end
 $var wire 16 } Acc_Buffer_5_3 $end
 $var wire 16 ~ Acc_Buffer_5_4 $end
 $var wire 16 "! Acc_Buffer_5_7 $end
 $var wire 32 "" Acc_Result_1_7 $end
 $var wire 32 "# Acc_Result_1_6 $end
 $var wire 32 "$ Acc_Result_1_3 $end
 $var wire 32 "% Acc_Result_1_2 $end
 $var wire 32 "& Acc_Result_1_5 $end
 $var wire 32 "' Acc_Result_1_4 $end
 $var wire 32 "( Acc_Result_1_1 $end
 $var wire 32 ") Acc_Result_1_0 $end
 $var wire 4 "* valid_counter_0 $end
 $var wire 4 "+ valid_counter_1 $end
 $var wire 4 ", valid_counter_2 $end
 $var wire 4 "- valid_counter_3 $end
 $var wire 4 ". valid_counter_4 $end
 $var wire 4 "/ valid_counter_5 $end
 $var wire 4 "0 valid_counter_6 $end
 $var wire 4 "1 valid_counter_7 $end
 $var wire 32 "2 Acc_Result_5_7 $end
 $var wire 32 "3 Acc_Result_5_6 $end
 $var wire 32 "4 Acc_Result_5_3 $end
 $var wire 32 "5 Acc_Result_5_2 $end
 $var wire 32 "6 Acc_Result_5_5 $end
 $var wire 32 "7 Acc_Result_5_4 $end
 $var wire 32 "8 Acc_Result_5_1 $end
 $var wire 32 "9 Acc_Result_5_0 $end
 $var wire 4 ": acc_counter $end
 $var wire 1 "; reset $end
 $var wire 32 "< io_out_sum_11 $end
 $var wire 32 "= io_out_sum_12 $end
 $var wire 32 "> io_out_sum_10 $end
 $var wire 32 "? io_out_sum_22 $end
 $var wire 32 "@ io_out_sum_23 $end
 $var wire 32 "A io_out_sum_20 $end
 $var wire 32 "B io_out_sum_21 $end
 $var wire 32 "C io_out_sum_15 $end
 $var wire 32 "D io_out_sum_16 $end
 $var wire 32 "E io_out_sum_13 $end
 $var wire 32 "F io_out_sum_14 $end
 $var wire 32 "G io_out_sum_19 $end
 $var wire 32 "H io_out_sum_17 $end
 $var wire 32 "I io_out_sum_18 $end
 $var wire 32 "J io_out_sum_30 $end
 $var wire 32 "K io_out_sum_33 $end
 $var wire 32 "L io_out_sum_34 $end
 $var wire 32 "M io_out_sum_31 $end
 $var wire 32 "N io_out_sum_32 $end
 $var wire 32 "O io_out_sum_26 $end
 $var wire 32 "P io_out_sum_27 $end
 $var wire 32 "Q io_out_sum_24 $end
 $var wire 32 "R io_out_sum_25 $end
 $var wire 32 "S io_out_sum_28 $end
 $var wire 32 "T io_out_sum_29 $end
 $var wire 32 "U io_out_sum_40 $end
 $var wire 32 "V io_out_sum_41 $end
 $var wire 32 "W io_out_sum_44 $end
 $var wire 32 "X io_out_sum_45 $end
 $var wire 32 "Y io_out_sum_42 $end
 $var wire 32 "Z io_out_sum_43 $end
 $var wire 32 "[ io_out_sum_37 $end
 $var wire 32 "\ io_out_sum_38 $end
 $var wire 32 "] io_out_sum_35 $end
 $var wire 32 "^ io_out_sum_36 $end
 $var wire 32 "_ io_out_sum_39 $end
 $var wire 32 "` io_out_sum_51 $end
 $var wire 32 "a io_out_sum_52 $end
 $var wire 32 "b io_out_sum_50 $end
 $var wire 32 "c io_out_sum_55 $end
 $var wire 32 "d io_out_sum_56 $end
 $var wire 32 "e io_out_sum_53 $end
 $var wire 32 "f io_out_sum_54 $end
 $var wire 32 "g io_out_sum_48 $end
 $var wire 32 "h io_out_sum_49 $end
 $var wire 32 "i io_out_sum_46 $end
 $var wire 32 "j io_out_sum_47 $end
 $var wire 32 "k io_out_sum_62 $end
 $var wire 32 "l io_out_sum_63 $end
 $var wire 32 "m io_out_sum_60 $end
 $var wire 32 "n io_out_sum_61 $end
 $var wire 32 "o io_out_sum_59 $end
 $var wire 32 "p io_out_sum_57 $end
 $var wire 32 "q io_out_sum_58 $end
 $var wire 16 "r Acc_Buffer_2_0 $end
 $var wire 16 "s Acc_Buffer_2_1 $end
 $var wire 16 "t Acc_Buffer_2_4 $end
 $var wire 16 "u Acc_Buffer_2_5 $end
 $var wire 16 "v Acc_Buffer_2_2 $end
 $var wire 16 "w Acc_Buffer_2_3 $end
 $var wire 16 "x Acc_Buffer_2_6 $end
 $var wire 16 "y Acc_Buffer_2_7 $end
 $var wire 1 "z io_in_valid_2 $end
 $var wire 1 "{ io_in_valid_3 $end
 $var wire 1 "| io_in_valid_0 $end
 $var wire 1 "} io_in_valid_1 $end
 $var wire 1 "~ io_in_valid_6 $end
 $var wire 1 #! io_in_valid_7 $end
 $var wire 1 #" io_in_valid_4 $end
 $var wire 1 ## io_in_valid_5 $end
 $var wire 16 #$ io_in_psum_7 $end
 $var wire 16 #% io_in_psum_3 $end
 $var wire 16 #& io_in_psum_4 $end
 $var wire 16 #' io_in_psum_5 $end
 $var wire 16 #( io_in_psum_6 $end
 $var wire 16 #) io_in_psum_0 $end
 $var wire 16 #* io_in_psum_1 $end
 $var wire 16 #+ io_in_psum_2 $end
 $var wire 16 #, Acc_Buffer_6_0 $end
 $var wire 16 #- Acc_Buffer_6_1 $end
 $var wire 16 #. Acc_Buffer_6_4 $end
 $var wire 16 #/ Acc_Buffer_6_5 $end
 $var wire 16 #0 Acc_Buffer_6_2 $end
 $var wire 16 #1 Acc_Buffer_6_3 $end
 $var wire 16 #2 Acc_Buffer_6_6 $end
 $var wire 16 #3 Acc_Buffer_6_7 $end
 $var wire 32 #4 Acc_Result_0_0 $end
 $var wire 32 #5 Acc_Result_0_2 $end
 $var wire 32 #6 Acc_Result_0_1 $end
 $var wire 32 #7 Acc_Result_0_7 $end
 $var wire 32 #8 Acc_Result_0_4 $end
 $var wire 32 #9 Acc_Result_0_3 $end
 $var wire 32 #: Acc_Result_0_6 $end
 $var wire 32 #; Acc_Result_0_5 $end
 $var wire 32 #< Acc_Result_4_7 $end
 $var wire 32 #= Acc_Result_4_4 $end
 $var wire 32 #> Acc_Result_4_3 $end
 $var wire 32 #? Acc_Result_4_6 $end
 $var wire 32 #@ Acc_Result_4_5 $end
 $var wire 32 #A Acc_Result_4_0 $end
 $var wire 32 #B Acc_Result_4_2 $end
 $var wire 32 #C Acc_Result_4_1 $end
$upscope $end
$enddefinitions $end
$dumpvars
b0000000000000000 !
b00000000000000000000000000000000 +
01
b00000000000000000000000000000000 *
b00000000000000000000000000000000 -
b00000000000000000000000000000000 ,
b0000000000000000 %
b0000000000000000 $
b0000000000000000 #
b00000000000000000000000000000000 )
b0000000000000000 "
b0000000000000000 (
b0000000000000000 '
0:
b0000000000000000 &
b00000000000000000000000000000000 ;
b00000000000000000000000000000000 =
b00000000000000000000000000000000 <
b0000000000000000 5
b0000000000000000 4
b0000000000000000 3
b0000000000000000 2
b0000000000000000 9
b0000000000000000 8
b0000000000000000 7
b0000000000000000 6
b00000000000000000000000000000000 /
b00000000000000000000000000000000 .
b00000000000000000000000000000000 0
0U
b0000000000000000 "!
0n
0w
b0000000000000000 #$
b0000000000000000 #%
b0000000000000000 #&
b0000000000000000 #'
b0000000000000000 #(
b0000000000000000 #)
b0000000000000000 #*
b0000000000000000 #+
b0000000000000000 #,
b0000000000000000 #-
b0000000000000000 #.
b0000000000000000 #/
b0000000000000000 #0
b0000000000000000 #1
b0000000000000000 #2
b0000000000000000 #3
0";
0#!
0#"
0##
b00000000000000000000000000000000 "o
b00000000000000000000000000000000 "n
b00000000000000000000000000000000 "m
b00000000000000000000000000000000 "l
b00000000000000000000000000000000 "q
b00000000000000000000000000000000 "p
b00000000000000000000000000000000 "g
0"z
b00000000000000000000000000000000 "f
0"{
b00000000000000000000000000000000 "e
0"|
b00000000000000000000000000000000 "d
0"}
b00000000000000000000000000000000 "k
0"~
b00000000000000000000000000000000 "j
b00000000000000000000000000000000 "i
b00000000000000000000000000000000 "h
b00000000000000000000000000000000 "3
b00000000000000000000000000000000 "2
b00000000000000000000000000000000 "'
b00000000000000000000000000000000 "&
b00000000000000000000000000000000 "%
b00000000000000000000000000000000 "$
b00000000000000000000000000000000 ")
b00000000000000000000000000000000 "(
b00000000000000000000000000000000 "?
b00000000000000000000000000000000 ">
b00000000000000000000000000000000 "=
b00000000000000000000000000000000 "<
b00000000000000000000000000000000 "C
b00000000000000000000000000000000 "B
b00000000000000000000000000000000 "A
b00000000000000000000000000000000 "@
b00000000000000000000000000000000 "7
b00000000000000000000000000000000 "6
b00000000000000000000000000000000 "5
b00000000000000000000000000000000 "4
b00000000000000000000000000000000 "9
b00000000000000000000000000000000 "8
b00000000000000000000000000000000 "O
b00000000000000000000000000000000 "N
b00000000000000000000000000000000 "M
b00000000000000000000000000000000 "L
b00000000000000000000000000000000 "S
b00000000000000000000000000000000 #4
b00000000000000000000000000000000 "R
b00000000000000000000000000000000 "Q
b00000000000000000000000000000000 "P
b00000000000000000000000000000000 "G
b00000000000000000000000000000000 "F
b00000000000000000000000000000000 "E
b00000000000000000000000000000000 "D
b00000000000000000000000000000000 "K
b00000000000000000000000000000000 "J
b00000000000000000000000000000000 "I
b00000000000000000000000000000000 "H
b00000000000000000000000000000000 "_
b00000000000000000000000000000000 #@
b00000000000000000000000000000000 "^
b00000000000000000000000000000000 #?
b00000000000000000000000000000000 "]
b00000000000000000000000000000000 #>
b00000000000000000000000000000000 "\
b00000000000000000000000000000000 #=
b00000000000000000000000000000000 "c
b00000000000000000000000000000000 "b
b00000000000000000000000000000000 #C
b00000000000000000000000000000000 "a
b00000000000000000000000000000000 #B
b00000000000000000000000000000000 "`
b00000000000000000000000000000000 #A
b00000000000000000000000000000000 "W
b00000000000000000000000000000000 #8
b00000000000000000000000000000000 "V
b00000000000000000000000000000000 #7
b00000000000000000000000000000000 "U
b00000000000000000000000000000000 #6
b00000000000000000000000000000000 "T
b00000000000000000000000000000000 #5
b00000000000000000000000000000000 "[
b00000000000000000000000000000000 #<
b00000000000000000000000000000000 "Z
b00000000000000000000000000000000 #;
b00000000000000000000000000000000 "Y
b00000000000000000000000000000000 #:
b00000000000000000000000000000000 "X
b00000000000000000000000000000000 #9
b00000000000000000000000000000000 "#
b00000000000000000000000000000000 ""
b0000000000000000 "t
b0000000000000000 "u
b0000000000000000 "v
b0000000000000000 "w
b0000000000000000 "x
b0000000000000000 "y
b0000000000000000 "r
b0000000000000000 "s
b0000000000000000 ~
b0000000000000000 a
b00000000000000000000000000000000 k
b0000000000000000 `
b00000000000000000000000000000000 j
b0000000000000000 _
b00000000000000000000000000000000 m
b0000000000000000 ^
b00000000000000000000000000000000 l
b00000000000000000000000000000000 g
b0000000000000000 d
b00000000000000000000000000000000 f
b0000000000000000 c
b0000 "+
b00000000000000000000000000000000 i
b0000000000000000 b
b0000 "*
b00000000000000000000000000000000 h
b0000 "-
b0000 ",
b0000 "/
b00000000000000000000000000000000 e
b0000 ".
b0000 "1
b0000 "0
b0000000000000000 q
b0000000000000000 p
b0000000000000000 o
b0000000000000000 u
b0000000000000000 t
b0000000000000000 s
b0000000000000000 r
b0000 ":
b0000000000000000 y
b0000000000000000 x
b0000000000000000 v
b0000000000000000 }
b0000000000000000 |
b0000000000000000 {
b0000000000000000 z
b00000000000000000000000000000000 K
b00000000000000000000000000000000 J
b00000000000000000000000000000000 L
b00000000000000000000000000000000 G
b00000000000000000000000000000000 F
b00000000000000000000000000000000 I
b00000000000000000000000000000000 H
b00000000000000000000000000000000 C
b00000000000000000000000000000000 B
b00000000000000000000000000000000 E
b00000000000000000000000000000000 D
b0000000000000000 M
b00000000000000000000000000000000 ?
b00000000000000000000000000000000 >
b00000000000000000000000000000000 A
b00000000000000000000000000000000 @
b0000000000000000 Q
b00000000000000000000000000000000 [
b0000000000000000 P
b00000000000000000000000000000000 Z
b0000000000000000 O
b0000000000000000 N
b00000000000000000000000000000000 \
b00000000000000000000000000000000 W
b0000000000000000 T
b00000000000000000000000000000000 V
b0000000000000000 S
b00000000000000000000000000000000 Y
b0000000000000000 R
b00000000000000000000000000000000 X
b0000000000000000 ]
$end
#0
1";
#1
1w
#6
b0000000001000111 #)
0w
0";
1"|
#11
1w
b0001 "*
b0000000001000111 _
#16
b0000000000100101 #)
0w
b0000000001000100 #*
1"}
#21
b0000000001000100 `
b0000000000100101 q
1w
b0010 "*
b0001 "+
#26
b0000000001001110 #)
0w
b0000000000111100 #*
b0000000001100111 #+
1"z
#31
b0000000001001110 "r
1w
b0011 "*
b0010 "+
b0001 ",
b0000000001100111 ]
b0000000000111100 o
#36
b0000000001101101 #%
b0000000001001011 #)
0w
b0000000000010101 #*
b0000000001010011 #+
1"{
#41
b0000000001010011 p
b0000000001001011 !
b0000000000010101 "s
1w
b0100 "*
b0011 "+
b0010 ",
b0001 "-
b0000000001101101 ^
#46
b0000000001100000 #%
b0000000001100110 #&
b0000000000101010 #)
0w
b0000000000100101 #*
b0000000000111110 #+
1#"
#51
b0000000001100110 c
b0000000000100101 $
b0000000001100000 t
b0000000000111110 "v
1w
b0101 "*
b0100 "+
b0011 ",
b0010 "-
b0001 ".
b0000000000101010 O
#56
1##
b0000000001000011 #%
b0000000001010100 #&
b0000000011000010 #'
b0000000001000001 #)
0w
b0000000000110010 #*
b0000000000111111 #+
#61
b0000000011000010 d
b0000000000111111 %
b0110 "*
b0101 "+
b0100 ",
b0011 "-
b0010 ".
b0001 "/
b0000000000110010 P
b0000000001010100 u
b0000000001000011 "w
1w
b0000000001000001 z
#66
b0000000001100101 #%
b0000000000101001 #&
b0000000010101010 #'
b0000000001110010 #(
b0000000000110111 #)
0w
b0000000000100111 #*
b0000000001010111 #+
1"~
#71
b0000000001110010 a
b0000000001100101 "
b0111 "*
b0110 "+
b0000000000110111 #,
b0101 ",
b0100 "-
b0011 ".
b0000000001010111 M
b0010 "/
b0001 "0
b0000000010101010 r
b0000000000101001 "t
1w
b0000000000100111 x
#76
b0000000001100001 #$
b0000000001100111 #%
b0000000000110001 #&
b0000000001011000 #'
b0000000001011001 #(
b0000000001000000 #)
0w
b0000000000110001 #*
b0000000001011010 #+
1#!
#81
b0000000001100001 b
b0000000000110001 #
b0000 "*
b0111 "+
b0110 ",
b0000000000110001 #-
b0101 "-
b0100 ".
b0011 "/
b0000000001100111 N
b0010 "0
b0001 "1
b0000000001000000 2
b0000000001011001 s
b0000000001011000 "u
1w
b0000000001011010 y
#86
b0000000001010001 #$
b0000000001000011 #%
b0000000001010111 #&
b0000000010000001 #'
b0000000000111011 #(
b0000000000000000 #)
0w
b0000000000111001 #*
b0000000001001011 #+
0"|
#91
b0000000010000001 '
b0000 "+
b0111 ",
b0110 "-
b0101 ".
b0100 "/
b0000000001001011 #0
b0011 "0
b0010 "1
b0000000001010111 S
b0000000000111001 5
b0000000001010001 v
b0000000000111011 "x
1w
b0000000001000011 }
#96
b0000000001000000 #$
b0000000001101110 #%
b0000000001001110 #&
b0000000010001111 #'
b0000000001000000 #(
0w
b0000000000000000 #*
b0000000001110100 #+
0"}
#101
b0000000001000000 (
b0000 ",
b0111 "-
b0110 ".
b0101 "/
b0100 "0
b0000000001101110 #1
b0011 "1
b0000000010001111 T
b0000000001110100 6
1w
b0000000001000000 "y
b0000000001001110 ~
#106
b0000000001000111 #$
b0000000001100010 #%
b0000000000111011 #&
b0000000001111101 #'
b0000000001110000 #(
0w
b0000000000000000 #+
0"z
#111
b0000000001110000 Q
b0000000001100010 3
b0000000001000111 &
1w
b0000000001111101 {
b0000 "-
b0000000000111011 #.
b0111 ".
b0110 "/
b0101 "0
b0100 "1
#116
b0000000001010100 #$
b0000000000000000 #%
b0000000001010110 #&
b0000000010010000 #'
b0000000001101110 #(
0w
0"{
#121
b0000000001010100 R
b0000000001010110 4
1w
b0000000001101110 |
b0000 ".
b0000000010010000 #/
b0111 "/
b0110 "0
b0101 "1
#126
b0000000000111101 #$
b0000000000000000 #&
b0000000010111100 #'
b0000000001001011 #(
0w
0#"
#131
1w
b0000000010111100 8
b0000 "/
b0111 "0
b0000000000111101 "!
b0110 "1
b0000000001001011 #2
#136
0##
b0000000001100001 #$
b0000000000000000 #'
b0000000001111111 #(
0w
#141
b0000000001100001 #3
1w
b0000000001111111 9
b0000 "0
b0111 "1
#146
b0000000001001111 #$
b0000000000000000 #(
0w
0"~
#151
b0000000001001111 7
1w
b0000 "1
#156
b0000000000000000 #$
1U
0w
0#!
#161
1w
b0001 ":
#166
0U
0w
#171
b00000000000000000000000001000111 #4
b00000000000000000000000001100111 #5
b00000000000000000000000001000100 #6
b00000000000000000000000001100001 #7
b00000000000000000000000001100110 #8
b00000000000000000000000001101101 #9
1w
b00000000000000000000000001110010 #:
b0010 ":
b00000000000000000000000011000010 #;
#176
0w
#181
b00000000000000000000000001010001 ""
b00000000000000000000000001011001 "#
b00000000000000000000000001100000 "$
b00000000000000000000000001010011 "%
b00000000000000000000000010101010 "&
b00000000000000000000000001010100 "'
b00000000000000000000000000111100 "(
1w
b00000000000000000000000000100101 ")
b0011 ":
#186
0w
#191
b00000000000000000000000000111011 V
b00000000000000000000000001011000 W
1w
b00000000000000000000000001000000 X
b0100 ":
b00000000000000000000000000111110 Y
b00000000000000000000000000010101 Z
b00000000000000000000000000101001 [
b00000000000000000000000001000011 \
b00000000000000000000000001001110 m
#196
0w
#201
b00000000000000000000000010000001 E
b00000000000000000000000000110001 F
b00000000000000000000000001000111 G
1w
b00000000000000000000000001000000 H
b0101 ":
b00000000000000000000000000100101 I
b00000000000000000000000001001011 J
b00000000000000000000000001100101 K
b00000000000000000000000000111111 L
#206
0w
#211
b00000000000000000000000000110010 #C
1w
b0110 ":
b00000000000000000000000001010100 #<
b00000000000000000000000001010111 #=
b00000000000000000000000001100111 #>
b00000000000000000000000001110000 #?
b00000000000000000000000010001111 #@
b00000000000000000000000000101010 #A
b00000000000000000000000001010111 #B
#216
0w
#221
b00000000000000000000000000111101 "2
b00000000000000000000000001101110 "3
b00000000000000000000000001000011 "4
b00000000000000000000000001011010 "5
b00000000000000000000000001111101 "6
b00000000000000000000000001001110 "7
b00000000000000000000000000100111 "8
1w
b00000000000000000000000001000001 "9
b0111 ":
#226
0w
#231
11
b00000000000000000000000001001011 e
b00000000000000000000000010010000 f
b00000000000000000000000001100001 g
1w
b00000000000000000000000001001011 h
b1000 ":
b00000000000000000000000000110001 i
b00000000000000000000000000111011 j
b00000000000000000000000001101110 k
b00000000000000000000000000110111 l
#236
0w
#241
b00000000000000000000000001110100 0
01
1w
b0000 ":
b00000000000000000000000010111100 )
b00000000000000000000000001010110 *
b00000000000000000000000001001111 +
b00000000000000000000000001111111 ,
b00000000000000000000000000111001 -
b00000000000000000000000001000000 .
b00000000000000000000000001100010 /
#246
b0000000001111111 #)
0w
1"|
#251
1w
b0001 "*
b0000000001111111 _
#256
b0000000001100000 #)
0w
b0000000010000001 #*
1"}
#261
b0000000010000001 `
b0000000001100000 q
1w
b0010 "*
b0001 "+
#266
b0000000001000000 #)
0w
b0000000001100110 #*
b0000000001011010 #+
1"z
#271
b0000000001000000 "r
1w
b0011 "*
b0010 "+
b0001 ",
b0000000001011010 ]
b0000000001100110 o
#276
b0000000010001100 #%
b0000000001010100 #)
0w
b0000000001001100 #*
b0000000000101010 #+
1"{
#281
b0000000000101010 p
b0000000001010100 !
b0000000001001100 "s
1w
b0100 "*
b0011 "+
b0010 ",
b0001 "-
b0000000010001100 ^
#286
b0000000001100101 #%
b0000000001111100 #&
b0000000001100010 #)
0w
b0000000001010010 #*
b0000000000110000 #+
1#"
#291
b0000000001111100 c
b0000000001010010 $
b0000000001100101 t
b0000000000110000 "v
1w
b0101 "*
b0100 "+
b0011 ",
b0010 "-
b0001 ".
b0000000001100010 O
#296
1##
b0000000001001110 #%
b0000000000111100 #&
b0000000010010110 #'
b0000000001011000 #)
0w
b0000000001110011 #*
b0000000001010000 #+
#301
b0000000010010110 d
b0000000001010000 %
b0110 "*
b0101 "+
b0100 ",
b0011 "-
b0010 ".
b0001 "/
b0000000001110011 P
b0000000000111100 u
b0000000001001110 "w
1w
b0000000001011000 z
#306
b0000000010010100 #%
b0000000000110100 #&
b0000000001110000 #'
b0000000001100111 #(
b0000000001010010 #)
0w
b0000000001100110 #*
b0000000001000111 #+
1"~
#311
b0000000001100111 a
b0000000010010100 "
b0111 "*
b0110 "+
b0000000001010010 #,
b0101 ",
b0100 "-
b0011 ".
b0000000001000111 M
b0010 "/
b0001 "0
b0000000001110000 r
b0000000000110100 "t
1w
b0000000001100110 x
#316
b0000000010001011 #$
b0000000001111011 #%
b0000000000111010 #&
b0000000001100011 #'
b0000000001111010 #(
b0000000001011111 #)
0w
b0000000001011011 #*
b0000000001000011 #+
1#!
#321
b0000000010001011 b
b0000000000111010 #
b0000 "*
b0111 "+
b0110 ",
b0000000001011011 #-
b0101 "-
b0100 ".
b0011 "/
b0000000001111011 N
b0010 "0
b0001 "1
b0000000001011111 2
b0000000001111010 s
b0000000001100011 "u
1w
b0000000001000011 y
#326
b0000000001001101 #$
b0000000001111110 #%
b0000000001000111 #&
b0000000010011001 #'
b0000000001100001 #(
b0000000000000000 #)
0w
b0000000001011100 #*
b0000000001001111 #+
0"|
#331
b0000000010011001 '
b0000 "+
b0111 ",
b0110 "-
b0101 ".
b0100 "/
b0000000001001111 #0
b0011 "0
b0010 "1
b0000000001000111 S
b0000000001011100 5
b0000000001001101 v
b0000000001100001 "x
1w
b0000000001111110 }
#336
b0000000001010001 #&
b0000000010010000 #'
b0000000001101101 #(
0w
b0000000000000000 #*
b0000000000110101 #+
0"}
#341
b0000000001101101 (
b0000 ",
b0111 "-
b0110 ".
b0101 "/
b0100 "0
b0000000001111110 #1
b0011 "1
b0000000010010000 T
b0000000000110101 6
1w
b0000000001001101 "y
b0000000001010001 ~
#346
b0000000001011011 #$
b0000000001101010 #%
b0000000001100101 #&
b0000000010001010 #'
b0000000010000101 #(
0w
b0000000000000000 #+
0"z
#351
b0000000010000101 Q
b0000000001101010 3
b0000000001011011 &
1w
b0000000010001010 {
b0000 "-
b0000000001100101 #.
b0111 ".
b0110 "/
b0101 "0
b0100 "1
#356
b0000000001110011 #$
b0000000000000000 #%
b0000000000111011 #&
b0000000010011011 #'
b0000000001101100 #(
0w
0"{
#361
b0000000001110011 R
b0000000000111011 4
1w
b0000000001101100 |
b0000 ".
b0000000010011011 #/
b0111 "/
b0110 "0
b0101 "1
#366
b0000000001100101 #$
b0000000000000000 #&
b0000000001111001 #'
b0000000001011010 #(
0w
0#"
#371
1w
b0000000001111001 8
b0000 "/
b0111 "0
b0000000001100101 "!
b0110 "1
b0000000001011010 #2
#376
0##
b0000000001111010 #$
b0000000000000000 #'
b0000000010000001 #(
0w
#381
b0000000001111010 #3
1w
b0000000010000001 9
b0000 "0
b0111 "1
#386
b0000000001001011 #$
b0000000000000000 #(
0w
0"~
#391
b0000000001001011 7
1w
b0000 "1
#396
b0000000000000000 #$
1U
0w
0#!
#401
1w
b0001 ":
#406
0U
0w
#411
b00000000000000000000000011000110 #4
b00000000000000000000000011000001 #5
b00000000000000000000000011000101 #6
b00000000000000000000000011101100 #7
b00000000000000000000000011100010 #8
b00000000000000000000000011111001 #9
1w
b00000000000000000000000011011001 #:
b0010 ":
b00000000000000000000000101011000 #;
#416
0w
#421
b00000000000000000000000010011110 ""
b00000000000000000000000011010011 "#
b00000000000000000000000011000101 "$
b00000000000000000000000001111101 "%
b00000000000000000000000100011010 "&
b00000000000000000000000010010000 "'
b00000000000000000000000010100010 "(
1w
b00000000000000000000000010000101 ")
b0011 ":
#426
0w
#431
b00000000000000000000000010011100 V
b00000000000000000000000010111011 W
1w
b00000000000000000000000010001101 X
b0100 ":
b00000000000000000000000001101110 Y
b00000000000000000000000001100001 Z
b00000000000000000000000001011101 [
b00000000000000000000000010010001 \
b00000000000000000000000010001110 m
#436
0w
#441
b00000000000000000000000100011010 E
b00000000000000000000000001101011 F
b00000000000000000000000010100010 G
1w
b00000000000000000000000010101101 H
b0101 ":
b00000000000000000000000001110111 I
b00000000000000000000000010011111 J
b00000000000000000000000011111001 K
b00000000000000000000000010001111 L
#446
0w
#451
b00000000000000000000000010100101 #C
1w
b0110 ":
b00000000000000000000000011000111 #<
b00000000000000000000000010011110 #=
b00000000000000000000000011100010 #>
b00000000000000000000000011110101 #?
b00000000000000000000000100011111 #@
b00000000000000000000000010001100 #A
b00000000000000000000000010011110 #B
#456
0w
#461
b00000000000000000000000010100010 "2
b00000000000000000000000011011010 "3
b00000000000000000000000011000001 "4
b00000000000000000000000010011101 "5
b00000000000000000000000100000111 "6
b00000000000000000000000010011111 "7
b00000000000000000000000010001101 "8
1w
b00000000000000000000000010011001 "9
b0111 ":
#466
0w
#471
11
b00000000000000000000000010100101 e
b00000000000000000000000100101011 f
b00000000000000000000000011011011 g
1w
b00000000000000000000000010011010 h
b1000 ":
b00000000000000000000000010001100 i
b00000000000000000000000010100000 j
b00000000000000000000000011101100 k
b00000000000000000000000010001001 l
#476
0w
#481
b00000000000000000000000010101001 0
01
1w
b0000 ":
b00000000000000000000000100110101 )
b00000000000000000000000010010001 *
b00000000000000000000000010011010 +
b00000000000000000000000100000000 ,
b00000000000000000000000010010101 -
b00000000000000000000000010011111 .
b00000000000000000000000011001100 /
