test_run_dir/should_test_Accumulator_Array/Accumulator_Array.vcd
$date
2022-12-12T15:02+0000
$end
$version
0.2
$end
$comment

$end
$timescale 1ns  $end
$scope module Accumulator_Array $end
 $var wire 1 ! io_valid $end
 $var wire 16 " Acc_Buffer_3_0 $end
 $var wire 16 # Acc_Buffer_3_3 $end
 $var wire 16 $ Acc_Buffer_3_1 $end
 $var wire 16 % Acc_Buffer_3_2 $end
 $var wire 16 & Acc_Buffer_2_0 $end
 $var wire 16 ' Acc_Buffer_2_1 $end
 $var wire 16 ( Acc_Buffer_2_2 $end
 $var wire 16 ) Acc_Buffer_2_3 $end
 $var wire 1 * io_in_valid_2 $end
 $var wire 1 + io_in_valid_3 $end
 $var wire 1 , io_in_valid_0 $end
 $var wire 1 - io_in_valid_1 $end
 $var wire 16 . Acc_Buffer_1_1 $end
 $var wire 16 / Acc_Buffer_1_2 $end
 $var wire 16 0 Acc_Buffer_1_0 $end
 $var wire 16 1 Acc_Buffer_1_3 $end
 $var wire 1 2 io_isdone $end
 $var wire 16 3 io_in_psum_3 $end
 $var wire 16 4 io_in_psum_0 $end
 $var wire 16 5 io_in_psum_1 $end
 $var wire 16 6 io_in_psum_2 $end
 $var wire 1 7 clock $end
 $var wire 1 8 io_in_compute_done $end
 $var wire 32 9 io_out_sum_5 $end
 $var wire 32 : io_out_sum_4 $end
 $var wire 32 ; io_out_sum_3 $end
 $var wire 32 < io_out_sum_2 $end
 $var wire 32 = io_out_sum_1 $end
 $var wire 32 > io_out_sum_0 $end
 $var wire 32 ? io_out_sum_9 $end
 $var wire 32 @ io_out_sum_8 $end
 $var wire 32 A io_out_sum_7 $end
 $var wire 32 B io_out_sum_6 $end
 $var wire 32 C Acc_Result_1_3 $end
 $var wire 32 D Acc_Result_1_2 $end
 $var wire 1 E io_in_acc $end
 $var wire 32 F Acc_Result_0_0 $end
 $var wire 32 G Acc_Result_0_2 $end
 $var wire 32 H Acc_Result_0_1 $end
 $var wire 32 I Acc_Result_2_2 $end
 $var wire 32 J Acc_Result_2_1 $end
 $var wire 32 K Acc_Result_2_3 $end
 $var wire 32 L Acc_Result_1_1 $end
 $var wire 32 M Acc_Result_1_0 $end
 $var wire 3 N valid_counter_0 $end
 $var wire 3 O valid_counter_1 $end
 $var wire 3 P valid_counter_2 $end
 $var wire 3 Q valid_counter_3 $end
 $var wire 32 R Acc_Result_0_3 $end
 $var wire 3 S acc_counter $end
 $var wire 16 T Acc_Buffer_0_2 $end
 $var wire 16 U Acc_Buffer_0_3 $end
 $var wire 16 V Acc_Buffer_0_0 $end
 $var wire 16 W Acc_Buffer_0_1 $end
 $var wire 1 X reset $end
 $var wire 32 Y io_out_sum_11 $end
 $var wire 32 Z io_out_sum_12 $end
 $var wire 32 [ io_out_sum_10 $end
 $var wire 32 \ io_out_sum_15 $end
 $var wire 32 ] io_out_sum_13 $end
 $var wire 32 ^ io_out_sum_14 $end
 $var wire 32 _ Acc_Result_3_1 $end
 $var wire 32 ` Acc_Result_3_0 $end
 $var wire 32 a Acc_Result_3_3 $end
 $var wire 32 b Acc_Result_3_2 $end
 $var wire 32 c Acc_Result_2_0 $end
$upscope $end
$enddefinitions $end
$dumpvars
02
b0000000000000000 %
b0000000000000000 $
b0000000000000000 #
b0000000000000000 "
07
b0000000000000000 )
08
b0000000000000000 (
b0000000000000000 '
b0000000000000000 &
b0000000000000000 1
b00000000000000000000000000000000 ;
b0000000000000000 0
b00000000000000000000000000000000 :
b0000000000000000 /
b00000000000000000000000000000000 =
b0000000000000000 .
b00000000000000000000000000000000 <
b0000000000000000 5
b0000000000000000 4
0E
b0000000000000000 3
b00000000000000000000000000000000 9
b0000000000000000 6
0X
b000 S
b000 O
b00000000000000000000000000000000 c
b000 N
b00000000000000000000000000000000 b
b000 Q
b000 P
b00000000000000000000000000000000 _
b00000000000000000000000000000000 ^
b00000000000000000000000000000000 a
b00000000000000000000000000000000 `
b00000000000000000000000000000000 K
b00000000000000000000000000000000 J
b00000000000000000000000000000000 M
b00000000000000000000000000000000 L
b00000000000000000000000000000000 G
b00000000000000000000000000000000 F
b00000000000000000000000000000000 I
b00000000000000000000000000000000 H
b00000000000000000000000000000000 C
b00000000000000000000000000000000 B
b00000000000000000000000000000000 D
b00000000000000000000000000000000 ?
b00000000000000000000000000000000 >
b00000000000000000000000000000000 A
b00000000000000000000000000000000 @
b00000000000000000000000000000000 [
0!
b00000000000000000000000000000000 Z
b00000000000000000000000000000000 ]
b00000000000000000000000000000000 \
b0000000000000000 U
b0000000000000000 T
b00000000000000000000000000000000 Y
b00000000000000000000000000000000 R
b0000000000000000 W
0*
b0000000000000000 V
0+
0,
0-
$end
#0
1X
#1
17
#6
b0000000001010100 4
07
0X
1,
#11
b0000000001010100 V
17
b001 N
#16
b0000000000111111 4
b0000000000111011 5
07
1-
#21
b0000000000111111 0
17
b0000000000111011 W
b010 N
b001 O
#26
b0000000000111110 4
b0000000000110111 5
b0000000000110110 6
07
1*
#31
b001 P
b0000000000110110 T
b0000000000111110 &
17
b0000000000110111 .
b011 N
b010 O
#36
b0000000001000010 3
b0000000001010101 4
b0000000000111000 5
b0000000000110010 6
07
1+
#41
b010 P
b001 Q
b0000000001010101 "
b0000000001000010 U
b0000000000111000 '
17
b000 N
b0000000000110010 /
b011 O
#46
b0000000000110001 3
b0000000000000000 4
b0000000000110000 5
b0000000000111000 6
07
0,
#51
b011 P
b0000000000110001 1
b010 Q
b0000000000110000 $
17
b0000000000111000 (
b000 O
#56
b0000000000111010 3
b0000000000000000 5
b0000000000110000 6
07
0-
#61
b000 P
b011 Q
b0000000000110000 %
17
b0000000000111010 )
#66
b0000000000110101 3
b0000000000000000 6
07
0*
#71
b000 Q
b0000000000110101 #
17
#76
b0000000000000000 3
1E
07
0+
#81
b001 S
17
#86
0E
07
#91
b00000000000000000000000001000010 R
b010 S
b00000000000000000000000001010100 F
17
b00000000000000000000000000110110 G
b00000000000000000000000000111011 H
#96
07
#101
b00000000000000000000000000110001 C
b011 S
b00000000000000000000000000110010 D
17
b00000000000000000000000000110111 L
b00000000000000000000000000111111 M
#106
07
#111
12
b100 S
b00000000000000000000000000111110 c
17
b00000000000000000000000000111000 I
b00000000000000000000000000111000 J
b00000000000000000000000000111010 K
#116
07
#121
b00000000000000000000000001010101 `
b00000000000000000000000000110101 a
02
b00000000000000000000000000110000 b
b000 S
17
b00000000000000000000000000110000 _
#126
b0000000000110011 4
07
1,
#131
b0000000000110011 V
17
b001 N
#136
b0000000000010101 4
b0000000001010101 5
07
1-
#141
b0000000000010101 0
17
b0000000001010101 W
b010 N
b001 O
#146
b0000000000111111 4
b0000000000110001 5
b0000000001010101 6
07
1*
#151
b001 P
b0000000001010101 T
b0000000000111111 &
17
b0000000000110001 .
b011 N
b010 O
#156
b0000000000111010 3
b0000000000011000 4
b0000000001011100 5
b0000000000101010 6
07
1+
#161
b010 P
b001 Q
b0000000000011000 "
b0000000000111010 U
b0000000001011100 '
17
b000 N
b0000000000101010 /
b011 O
#166
b0000000000010101 3
b0000000000000000 4
b0000000000101001 5
b0000000001010101 6
07
0,
#171
b011 P
b0000000000010101 1
b010 Q
b0000000000101001 $
17
b0000000001010101 (
b000 O
#176
b0000000001001001 3
b0000000000000000 5
b0000000000101100 6
07
0-
#181
b000 P
b011 Q
b0000000000101100 %
17
b0000000001001001 )
#186
b0000000000011101 3
b0000000000000000 6
07
0*
#191
b000 Q
b0000000000011101 #
17
#196
b0000000000000000 3
1E
07
0+
#201
b001 S
17
#206
0E
07
#211
b00000000000000000000000001111100 R
b010 S
b00000000000000000000000010000111 F
17
b00000000000000000000000010001011 G
b00000000000000000000000010010000 H
#216
07
#221
b00000000000000000000000001000110 C
b011 S
b00000000000000000000000001011100 D
17
b00000000000000000000000001101000 L
b00000000000000000000000001010100 M
#226
07
#231
12
b100 S
b00000000000000000000000001111101 c
17
b00000000000000000000000010001101 I
b00000000000000000000000010010100 J
b00000000000000000000000010000011 K
#236
07
#241
b00000000000000000000000001101101 `
b00000000000000000000000001010010 a
02
b00000000000000000000000001011100 b
b000 S
17
b00000000000000000000000001011001 _
#246
b00000000000000000000000001111101 @
1!
b00000000000000000000000001000110 A
b00000000000000000000000001011100 B
07
18
b00000000000000000000000001101000 9
b00000000000000000000000010000011 Y
b00000000000000000000000001010100 :
b00000000000000000000000001101101 Z
b00000000000000000000000001111100 ;
b00000000000000000000000010001101 [
b00000000000000000000000010001011 <
b00000000000000000000000001010010 \
b00000000000000000000000010010000 =
b00000000000000000000000001011001 ]
b00000000000000000000000010000111 >
b00000000000000000000000001011100 ^
b00000000000000000000000010010100 ?
#251
17
#256
07
08
