test_run_dir/should_test_Activation_Buffer/Activation_Buffer.vcd
$date
2022-12-15T08:21+0000
$end
$version
0.2
$end
$comment

$end
$timescale 1ns  $end
$scope module Activation_Buffer $end
 $var wire 1 ! empty $end
 $var wire 8 " io_in_data_x_12 $end
 $var wire 8 # io_in_data_x_13 $end
 $var wire 8 $ io_in_data_x_14 $end
 $var wire 8 % io_in_data_x_15 $end
 $var wire 8 & io_in_data_x_10 $end
 $var wire 8 ' io_in_data_x_11 $end
 $var wire 8 ( io_in_data_x_16 $end
 $var wire 8 ) io_in_data_x_17 $end
 $var wire 8 * io_in_data_x_18 $end
 $var wire 8 + io_in_data_x_19 $end
 $var wire 8 , io_in_data_x_23 $end
 $var wire 8 - io_in_data_x_24 $end
 $var wire 8 . io_in_data_x_25 $end
 $var wire 8 / io_in_data_x_26 $end
 $var wire 8 0 io_in_data_x_20 $end
 $var wire 8 1 io_in_data_x_21 $end
 $var wire 8 2 io_in_data_x_22 $end
 $var wire 8 3 io_in_data_x_27 $end
 $var wire 8 4 io_in_data_x_28 $end
 $var wire 8 5 io_in_data_x_29 $end
 $var wire 8 6 io_in_data_x_34 $end
 $var wire 8 7 io_in_data_x_35 $end
 $var wire 8 8 io_in_data_x_36 $end
 $var wire 8 9 io_in_data_x_37 $end
 $var wire 8 : io_in_data_x_30 $end
 $var wire 8 ; io_in_data_x_31 $end
 $var wire 8 < io_in_data_x_32 $end
 $var wire 8 = io_in_data_x_33 $end
 $var wire 8 > io_in_data_x_38 $end
 $var wire 8 ? io_in_data_x_39 $end
 $var wire 8 @ io_in_data_x_40 $end
 $var wire 8 A io_in_data_x_45 $end
 $var wire 8 B io_in_data_x_46 $end
 $var wire 8 C io_in_data_x_47 $end
 $var wire 8 D io_in_data_x_48 $end
 $var wire 8 E io_in_data_x_41 $end
 $var wire 8 F io_in_data_x_42 $end
 $var wire 8 G io_in_data_x_43 $end
 $var wire 8 H io_in_data_x_44 $end
 $var wire 8 I io_in_data_x_49 $end
 $var wire 8 J io_in_data_x_50 $end
 $var wire 8 K io_in_data_x_51 $end
 $var wire 8 L io_in_data_x_56 $end
 $var wire 8 M io_in_data_x_57 $end
 $var wire 8 N io_in_data_x_58 $end
 $var wire 8 O io_in_data_x_59 $end
 $var wire 8 P io_in_data_x_52 $end
 $var wire 8 Q io_in_data_x_53 $end
 $var wire 8 R io_in_data_x_54 $end
 $var wire 8 S io_in_data_x_55 $end
 $var wire 8 T io_in_data_x_60 $end
 $var wire 8 U io_in_data_x_61 $end
 $var wire 8 V io_in_data_x_62 $end
 $var wire 8 W io_in_data_x_63 $end
 $var wire 8 X buffer_0_61 $end
 $var wire 8 Y buffer_0_60 $end
 $var wire 8 Z buffer_0_63 $end
 $var wire 8 [ buffer_0_62 $end
 $var wire 8 \ buffer_0_41 $end
 $var wire 8 ] buffer_0_40 $end
 $var wire 8 ^ buffer_0_43 $end
 $var wire 8 _ buffer_0_42 $end
 $var wire 8 ` buffer_0_45 $end
 $var wire 8 a buffer_0_44 $end
 $var wire 8 b buffer_0_47 $end
 $var wire 8 c buffer_0_46 $end
 $var wire 8 d buffer_0_49 $end
 $var wire 8 e buffer_0_48 $end
 $var wire 8 f buffer_0_50 $end
 $var wire 8 g buffer_0_52 $end
 $var wire 8 h buffer_0_51 $end
 $var wire 8 i buffer_0_54 $end
 $var wire 8 j buffer_0_53 $end
 $var wire 8 k buffer_0_56 $end
 $var wire 8 l buffer_0_55 $end
 $var wire 1 m io_ren $end
 $var wire 8 n buffer_0_58 $end
 $var wire 8 o buffer_0_57 $end
 $var wire 8 p buffer_0_59 $end
 $var wire 8 q buffer_0_21 $end
 $var wire 8 r buffer_0_20 $end
 $var wire 8 s buffer_0_23 $end
 $var wire 8 t buffer_0_22 $end
 $var wire 8 u buffer_0_25 $end
 $var wire 8 v buffer_0_24 $end
 $var wire 8 w buffer_0_27 $end
 $var wire 8 x buffer_0_26 $end
 $var wire 8 y buffer_0_29 $end
 $var wire 8 z buffer_0_28 $end
 $var wire 8 { buffer_0_30 $end
 $var wire 8 | buffer_0_32 $end
 $var wire 8 } buffer_0_31 $end
 $var wire 8 ~ buffer_0_34 $end
 $var wire 8 "! buffer_0_33 $end
 $var wire 8 "" buffer_0_36 $end
 $var wire 8 "# buffer_0_35 $end
 $var wire 8 "$ buffer_0_38 $end
 $var wire 8 "% buffer_0_37 $end
 $var wire 8 "& buffer_0_39 $end
 $var wire 8 "' buffer_0_10 $end
 $var wire 8 "( buffer_0_12 $end
 $var wire 8 ") buffer_0_11 $end
 $var wire 8 "* buffer_0_14 $end
 $var wire 8 "+ buffer_0_13 $end
 $var wire 8 ", buffer_0_16 $end
 $var wire 8 "- buffer_0_15 $end
 $var wire 8 ". buffer_0_18 $end
 $var wire 8 "/ buffer_0_17 $end
 $var wire 8 "0 buffer_0_19 $end
 $var wire 3 "1 read_ptr $end
 $var wire 8 "2 buffer_0_1 $end
 $var wire 8 "3 buffer_0_0 $end
 $var wire 8 "4 buffer_0_5 $end
 $var wire 8 "5 buffer_0_4 $end
 $var wire 8 "6 buffer_0_3 $end
 $var wire 8 "7 buffer_0_2 $end
 $var wire 8 "8 buffer_0_9 $end
 $var wire 8 "9 buffer_0_8 $end
 $var wire 8 ": buffer_0_7 $end
 $var wire 8 "; buffer_0_6 $end
 $var wire 1 "< io_isempty $end
 $var wire 8 "= buffer_1_0 $end
 $var wire 8 "> buffer_1_4 $end
 $var wire 8 "? buffer_1_3 $end
 $var wire 8 "@ buffer_1_2 $end
 $var wire 8 "A buffer_1_1 $end
 $var wire 8 "B buffer_1_8 $end
 $var wire 8 "C buffer_1_7 $end
 $var wire 8 "D buffer_1_6 $end
 $var wire 8 "E buffer_1_5 $end
 $var wire 8 "F buffer_1_9 $end
 $var wire 1 "G clock $end
 $var wire 1 "H reset $end
 $var wire 8 "I buffer_2_3 $end
 $var wire 8 "J buffer_2_2 $end
 $var wire 8 "K buffer_2_1 $end
 $var wire 8 "L buffer_2_0 $end
 $var wire 8 "M buffer_2_7 $end
 $var wire 8 "N buffer_2_6 $end
 $var wire 8 "O buffer_2_5 $end
 $var wire 8 "P buffer_2_4 $end
 $var wire 8 "Q buffer_2_9 $end
 $var wire 8 "R buffer_2_8 $end
 $var wire 3 "S write_ptr $end
 $var wire 8 "T buffer_3_2 $end
 $var wire 8 "U buffer_3_1 $end
 $var wire 8 "V buffer_3_0 $end
 $var wire 8 "W buffer_3_6 $end
 $var wire 8 "X buffer_3_5 $end
 $var wire 8 "Y buffer_3_4 $end
 $var wire 8 "Z buffer_3_3 $end
 $var wire 8 "[ buffer_3_9 $end
 $var wire 8 "\ buffer_3_8 $end
 $var wire 8 "] buffer_3_7 $end
 $var wire 1 "^ full $end
 $var wire 8 "_ buffer_3_54 $end
 $var wire 8 "` buffer_3_55 $end
 $var wire 8 "a buffer_3_52 $end
 $var wire 8 "b buffer_3_53 $end
 $var wire 8 "c buffer_3_58 $end
 $var wire 8 "d buffer_3_59 $end
 $var wire 8 "e buffer_3_56 $end
 $var wire 8 "f buffer_3_57 $end
 $var wire 8 "g buffer_3_50 $end
 $var wire 8 "h buffer_3_51 $end
 $var wire 8 "i buffer_3_63 $end
 $var wire 8 "j buffer_3_61 $end
 $var wire 8 "k buffer_3_62 $end
 $var wire 8 "l buffer_3_60 $end
 $var wire 8 "m buffer_3_32 $end
 $var wire 8 "n buffer_3_33 $end
 $var wire 8 "o buffer_3_30 $end
 $var wire 8 "p buffer_3_31 $end
 $var wire 8 "q buffer_3_36 $end
 $var wire 8 "r buffer_3_37 $end
 $var wire 8 "s buffer_3_34 $end
 $var wire 8 "t buffer_3_35 $end
 $var wire 8 "u buffer_3_38 $end
 $var wire 8 "v buffer_3_39 $end
 $var wire 8 "w buffer_3_43 $end
 $var wire 8 "x buffer_3_44 $end
 $var wire 8 "y buffer_3_41 $end
 $var wire 8 "z buffer_3_42 $end
 $var wire 8 "{ buffer_3_47 $end
 $var wire 8 "| buffer_3_48 $end
 $var wire 8 "} buffer_3_45 $end
 $var wire 8 "~ buffer_3_46 $end
 $var wire 8 #! buffer_3_40 $end
 $var wire 8 #" buffer_3_49 $end
 $var wire 8 ## buffer_3_10 $end
 $var wire 8 #$ buffer_3_11 $end
 $var wire 8 #% buffer_3_14 $end
 $var wire 8 #& buffer_3_15 $end
 $var wire 8 #' buffer_3_12 $end
 $var wire 8 #( buffer_3_13 $end
 $var wire 8 #) buffer_3_18 $end
 $var wire 8 #* buffer_3_19 $end
 $var wire 8 #+ buffer_3_16 $end
 $var wire 8 #, buffer_3_17 $end
 $var wire 8 #- buffer_3_21 $end
 $var wire 8 #. buffer_3_22 $end
 $var wire 5 #/ flow_ptr $end
 $var wire 8 #0 buffer_3_20 $end
 $var wire 8 #1 buffer_3_25 $end
 $var wire 8 #2 buffer_3_26 $end
 $var wire 8 #3 buffer_3_23 $end
 $var wire 8 #4 buffer_3_24 $end
 $var wire 8 #5 buffer_3_29 $end
 $var wire 8 #6 buffer_3_27 $end
 $var wire 8 #7 buffer_3_28 $end
 $var wire 8 #8 io_in_data_x_8 $end
 $var wire 8 #9 io_in_data_x_7 $end
 $var wire 8 #: io_in_data_x_9 $end
 $var wire 8 #; io_in_data_x_4 $end
 $var wire 8 #< io_in_data_x_3 $end
 $var wire 8 #= io_in_data_x_6 $end
 $var wire 8 #> io_in_data_x_5 $end
 $var wire 8 #? io_in_data_x_0 $end
 $var wire 8 #@ io_in_data_x_2 $end
 $var wire 8 #A io_in_data_x_1 $end
 $var wire 8 #B io_out_activate_1 $end
 $var wire 8 #C io_out_activate_0 $end
 $var wire 8 #D io_out_activate_5 $end
 $var wire 8 #E io_out_activate_4 $end
 $var wire 8 #F io_out_activate_3 $end
 $var wire 8 #G io_out_activate_2 $end
 $var wire 8 #H io_out_activate_7 $end
 $var wire 8 #I io_out_activate_6 $end
 $var wire 8 #J buffer_2_63 $end
 $var wire 8 #K buffer_2_62 $end
 $var wire 8 #L buffer_2_61 $end
 $var wire 8 #M buffer_2_60 $end
 $var wire 8 #N buffer_2_41 $end
 $var wire 8 #O buffer_2_40 $end
 $var wire 8 #P buffer_2_43 $end
 $var wire 8 #Q buffer_2_42 $end
 $var wire 8 #R buffer_2_45 $end
 $var wire 8 #S buffer_2_44 $end
 $var wire 8 #T buffer_2_47 $end
 $var wire 8 #U buffer_2_46 $end
 $var wire 8 #V buffer_2_49 $end
 $var wire 8 #W buffer_2_48 $end
 $var wire 8 #X buffer_2_52 $end
 $var wire 8 #Y buffer_2_51 $end
 $var wire 8 #Z buffer_2_54 $end
 $var wire 8 #[ buffer_2_53 $end
 $var wire 8 #\ buffer_2_56 $end
 $var wire 8 #] buffer_2_55 $end
 $var wire 8 #^ buffer_2_58 $end
 $var wire 8 #_ buffer_2_57 $end
 $var wire 8 #` buffer_2_50 $end
 $var wire 8 #a buffer_2_59 $end
 $var wire 8 #b buffer_2_21 $end
 $var wire 8 #c buffer_2_20 $end
 $var wire 8 #d buffer_2_23 $end
 $var wire 8 #e buffer_2_22 $end
 $var wire 8 #f buffer_2_25 $end
 $var wire 8 #g buffer_2_24 $end
 $var wire 8 #h buffer_2_27 $end
 $var wire 8 #i buffer_2_26 $end
 $var wire 8 #j buffer_2_29 $end
 $var wire 8 #k buffer_2_28 $end
 $var wire 8 #l buffer_2_30 $end
 $var wire 8 #m buffer_2_32 $end
 $var wire 8 #n buffer_2_31 $end
 $var wire 8 #o buffer_2_34 $end
 $var wire 8 #p buffer_2_33 $end
 $var wire 8 #q buffer_2_36 $end
 $var wire 8 #r buffer_2_35 $end
 $var wire 8 #s buffer_2_38 $end
 $var wire 8 #t buffer_2_37 $end
 $var wire 8 #u buffer_2_39 $end
 $var wire 1 #v io_isdone $end
 $var wire 8 #w buffer_2_10 $end
 $var wire 8 #x buffer_2_12 $end
 $var wire 8 #y buffer_2_11 $end
 $var wire 8 #z buffer_2_14 $end
 $var wire 8 #{ buffer_2_13 $end
 $var wire 8 #| buffer_2_16 $end
 $var wire 8 #} buffer_2_15 $end
 $var wire 8 #~ buffer_2_18 $end
 $var wire 8 $! buffer_2_17 $end
 $var wire 8 $" buffer_2_19 $end
 $var wire 1 $# io_isfull $end
 $var wire 1 $$ io_out_flow $end
 $var wire 8 $% buffer_1_51 $end
 $var wire 8 $& buffer_1_50 $end
 $var wire 8 $' buffer_1_53 $end
 $var wire 8 $( buffer_1_52 $end
 $var wire 8 $) buffer_1_55 $end
 $var wire 8 $* buffer_1_54 $end
 $var wire 8 $+ buffer_1_57 $end
 $var wire 8 $, buffer_1_56 $end
 $var wire 8 $- buffer_1_59 $end
 $var wire 8 $. buffer_1_58 $end
 $var wire 8 $/ buffer_1_62 $end
 $var wire 8 $0 buffer_1_61 $end
 $var wire 8 $1 buffer_1_63 $end
 $var wire 8 $2 buffer_1_60 $end
 $var wire 1 $3 io_wen $end
 $var wire 8 $4 buffer_1_31 $end
 $var wire 8 $5 buffer_1_30 $end
 $var wire 8 $6 buffer_1_33 $end
 $var wire 8 $7 buffer_1_32 $end
 $var wire 8 $8 buffer_1_35 $end
 $var wire 8 $9 buffer_1_34 $end
 $var wire 8 $: buffer_1_37 $end
 $var wire 8 $; buffer_1_36 $end
 $var wire 8 $< buffer_1_39 $end
 $var wire 8 $= buffer_1_38 $end
 $var wire 8 $> buffer_1_40 $end
 $var wire 8 $? buffer_1_42 $end
 $var wire 8 $@ buffer_1_41 $end
 $var wire 8 $A buffer_1_44 $end
 $var wire 8 $B buffer_1_43 $end
 $var wire 8 $C buffer_1_46 $end
 $var wire 8 $D buffer_1_45 $end
 $var wire 8 $E buffer_1_48 $end
 $var wire 8 $F buffer_1_47 $end
 $var wire 8 $G buffer_1_49 $end
 $var wire 8 $H buffer_1_11 $end
 $var wire 8 $I buffer_1_10 $end
 $var wire 8 $J buffer_1_13 $end
 $var wire 8 $K buffer_1_12 $end
 $var wire 8 $L buffer_1_15 $end
 $var wire 8 $M buffer_1_14 $end
 $var wire 8 $N buffer_1_17 $end
 $var wire 8 $O buffer_1_16 $end
 $var wire 8 $P buffer_1_19 $end
 $var wire 8 $Q buffer_1_18 $end
 $var wire 8 $R buffer_1_20 $end
 $var wire 8 $S buffer_1_22 $end
 $var wire 8 $T buffer_1_21 $end
 $var wire 8 $U buffer_1_24 $end
 $var wire 8 $V buffer_1_23 $end
 $var wire 8 $W buffer_1_26 $end
 $var wire 8 $X buffer_1_25 $end
 $var wire 8 $Y buffer_1_28 $end
 $var wire 8 $Z buffer_1_27 $end
 $var wire 8 $[ buffer_1_29 $end
$upscope $end
$enddefinitions $end
$dumpvars
b00000000 k
b00000000 j
b00000000 l
b00000000 g
b00000000 f
b00000000 i
b00000000 h
b00000000 c
b00000000 b
b00000000 e
b00000000 d
b00000000 _
b00000000 ^
b00000000 a
b00000000 `
b00000000 {
b00000000 z
b00000000 }
b00000000 |
b00000000 w
b00000000 v
b00000000 y
b00000000 x
b00000000 s
b00000000 r
b00000000 u
b00000000 t
b00000000 o
b00000000 n
b00000000 q
b00000000 p
b00000000 K
b00000000 J
b00000000 M
b00000000 L
b00000000 G
b00000000 F
b00000000 I
b00000000 H
b00000000 C
b00000000 B
b00000000 E
b00000000 D
b00000000 ?
b00000000 >
b00000000 A
b00000000 @
b00000000 [
b00000000 Z
b00000000 ]
b00000000 \
b00000000 W
b00000000 V
b00000000 Y
b00000000 X
b00000000 S
b00000000 R
b00000000 U
b00000000 T
b00000000 O
0m
b00000000 N
b00000000 Q
b00000000 P
b00000000 ~
b00000000 "g
b00000000 #H
b00000000 $)
b00000000 "f
b00000000 #G
b00000000 $(
b00000000 "e
b00000000 #F
b00000000 $'
b00000000 "d
b00000000 #E
b00000000 $&
b00000000 "k
b00000000 #L
b00000000 $-
b00000000 "j
b00000000 #K
b00000000 $,
b00000000 "i
b00000000 #J
b00000000 $+
b00000000 "h
b00000000 #I
b00000000 $*
b00000 #/
b00000000 "o
b00000000 #P
b00000000 $1
b00000000 "n
b00000000 #O
b00000000 $0
0"<
b00000000 "m
b00000000 #N
b00000000 $/
b00000000 "l
b00000000 #M
b00000000 $.
b00000000 "s
b00000000 #T
b00000000 $5
b00000000 "r
b00000000 #S
b00000000 $4
b00000000 "q
b00000000 #R
b00000000 "p
b00000000 #Q
b00000000 $2
b00000000 "w
b00000000 #X
b00000000 $9
b00000000 "v
b00000000 #W
b00000000 $8
b00000000 "u
b00000000 #V
b00000000 $7
b00000000 "t
b00000000 #U
b00000000 $6
b00000000 "{
b00000000 #\
b00000000 $=
0"G
b00000000 "z
b00000000 #[
b00000000 $<
0"H
b00000000 "y
b00000000 #Z
b00000000 $;
b00000000 "x
b00000000 #Y
b00000000 $:
b00000000 #`
b00000000 $A
b00000000 "~
b00000000 #_
b00000000 $@
b00000000 "}
b00000000 #^
b00000000 $?
b00000000 "|
b00000000 #]
b00000000 $>
b00000000 #d
b00000000 $E
b00000000 #c
b00000000 $D
b00000000 #b
b00000000 $C
b00000000 #a
b00000000 $B
b00000000 #h
b00000000 $I
b00000000 #g
b00000000 $H
b00000000 #f
b00000000 $G
b00000000 #e
b00000000 $F
b00000000 #l
b00000000 $M
b00000000 #k
b00000000 $L
b00000000 #j
b00000000 $K
b00000000 #i
b00000000 $J
b00000000 #p
b00000000 $Q
b00000000 #o
b00000000 $P
b00000000 #n
b00000000 $O
b00000000 #m
b00000000 $N
0"^
b00000000 #t
b00000000 $U
b00000000 #s
b00000000 $T
b00000000 #r
b00000000 $S
0$#
b00000000 #q
b00000000 $R
0$$
b00000000 #x
b00000000 $Y
b00000000 #w
b00000000 $X
b00000000 $W
b00000000 #u
b00000000 $V
b00000000 #|
b00000000 #{
b00000000 #z
b00000000 $[
b00000000 #y
b00000000 $Z
b00000000 #~
b00000000 #}
0$3
0#v
b00000000 "#
b00000000 ""
b00000000 "!
b00000000 "'
b00000000 "&
b00000000 "%
b00000000 "$
b00000000 "+
b00000000 "*
b00000000 ")
b00000000 "(
b00000000 "/
b00000000 ".
b00000000 "-
b00000000 ",
b00000000 "3
b00000000 "2
b00000000 "0
b00000000 "7
b00000000 "6
b00000000 "5
b00000000 "4
b00000000 ";
b00000000 ":
b00000000 "9
b00000000 "8
b00000000 "?
b00000000 ">
b00000000 "=
b00000000 "C
b00000000 #$
b00000000 "B
b00000000 ##
b00000000 "A
b00000000 #"
b00000000 "@
b00000000 #!
b00000000 #(
b00000000 "F
b00000000 #'
b00000000 "E
b00000000 #&
b00000000 "D
b00000000 #%
b00000000 "K
b00000000 #,
b00000000 "J
b00000000 #+
b00000000 "I
b00000000 #*
b00000000 #)
b00000000 "O
b00000000 #0
b00000000 "N
b00000000 "M
b00000000 #.
b00000000 "L
b00000000 #-
b00000000 #4
b00000000 "R
b00000000 #3
b00000000 "Q
b00000000 #2
b00000000 "P
b00000000 #1
b00000000 "W
b00000000 #8
b00000000 "V
b00000000 #7
b00000000 "U
b00000000 #6
b00000000 "T
b00000000 #5
b00000000 "[
b00000000 #<
b00000000 "Z
b00000000 #;
b00000000 "Y
b00000000 #:
b00000000 "X
b00000000 #9
b00000000 "_
b00000000 #@
b00000000 $!
b00000000 #?
b00000000 "]
b00000000 #>
b00000000 "\
b00000000 #=
b00000000 "c
b00000000 #D
b00000000 $%
b00000000 "b
b00000000 #C
b00000000 "a
b00000000 #B
b00000000 "`
b00000000 #A
b00000000 $"
b000 "S
b00000000 +
b00000000 *
b00000000 -
b00000000 ,
b00000000 '
b00000000 &
b00000000 )
b00000000 (
b00000000 #
b00000000 "
b00000000 %
b00000000 $
b00000000 ;
b00000000 :
b00000000 =
b00000000 <
b00000000 7
b00000000 6
b00000000 9
b00000000 8
b00000000 3
b00000000 2
b00000000 5
b00000000 4
b00000000 /
b00000000 .
b00000000 1
b00000000 0
b000 "1
0!
$end
#0
1!
1"H
1"<
#1
1"G
#6
1$3
b00010110 "
b00101110 #
b00100011 $
b01100001 %
b00010001 &
b00001010 '
b01011011 (
b00001111 )
b01101111 *
b01001000 +
b01110101 ,
b01010110 -
b00011111 .
b00101011 /
b01100001 0
b01110011 1
b00110111 2
b01010110 3
b01101100 4
b00111000 5
b01110010 6
b01010100 7
b00000011 8
b01011111 9
b01011110 :
b00111011 ;
b00001011 <
b00001111 =
b01101100 >
b01011101 ?
b01100011 @
b00000001 A
b01011110 B
b00101110 C
b01001111 D
b00010100 E
b00000111 F
b00011010 G
b00111111 H
b01100011 I
b01010011 J
b00010111 K
b01111101 L
b00101000 M
b00001011 N
b01100010 O
b01001011 P
b01000010 Q
b00111010 R
b01010001 S
b01000111 T
b01010000 U
b00100101 V
b00101000 W
0"G
0"H
b00100001 #8
b00011000 #9
b00010000 #:
b01010011 #;
b01010001 #<
b00000101 #=
b01111000 #>
b01100111 #?
b00101011 #@
b00001011 #A
#11
0!
b00010110 "!
b00000011 ""
b01101100 "#
b01001011 "$
b00111111 "%
b01000111 "&
b00001111 "'
b00001111 "(
b00011111 ")
b01100011 "*
b00010100 "+
b00101011 ",
b00101000 "-
b01101111 ".
b00010001 "/
b00101011 "0
b00100001 "2
b01100111 "3
b01100011 "4
b00001011 "5
b01010110 "6
b01011011 "7
b00010000 "8
b00001011 "9
b00101110 X
b01111101 ":
b01011101 Y
b01001111 ";
b00101000 Z
0"<
b01010001 [
b00101110 \
b01111000 ]
b00111000 ^
b01110011 _
b00000001 `
b01011111 a
b01010000 b
b01000010 c
b00100011 d
b00000101 e
1"G
b00110111 f
b01101100 g
b01011110 h
b00111010 i
b01011110 j
b00011000 k
b00100101 l
b01110101 n
b01100001 o
b00111011 p
b00000111 q
b001 "S
b01110010 r
b00001011 s
b01010011 t
b00001010 u
b01010001 v
b01010110 w
b01001000 x
b00011010 y
b01010100 z
b00010111 {
b01010011 |
b01100010 }
b01100001 ~
#16
b00001001 "
b00000111 #
b01001111 $
b01011010 %
b00000000 '
b01001101 )
b01101100 *
b00111100 +
b00110100 ,
b01010000 -
b00001011 .
b01111010 /
b00011010 0
b01010111 1
b00000100 2
b01001011 3
b00100100 4
b01110011 5
b00000011 6
b01111110 7
b01111001 8
b00101101 9
b00110001 :
b00101100 ;
b00010100 <
b00001001 =
b00100010 >
b00111011 ?
b01100001 @
b00100100 A
b00000010 B
b01010010 C
b00110101 D
b01010010 E
b01110100 F
b01001001 G
b01001101 H
b00000101 I
b00010011 J
b01000110 K
b01011110 L
b01101011 M
b00111000 N
b01101100 P
b00111101 Q
b00110111 R
b01111111 S
b00011011 T
b00000101 U
b01001000 V
b01010010 W
0"G
b01100001 #8
b00101011 #9
b01001001 #:
b01110100 #;
b01010011 #<
b00001110 #=
b00111100 #>
b00010001 #?
b00001110 #@
b00011001 #A
#21
b00110001 $%
b00000100 $&
b00000010 $'
b00100010 $(
b01001000 $)
b00110111 $*
b01011010 $+
b00101011 $,
b00101100 $-
b00110100 $.
b01111111 $/
b01010010 $0
b01010010 $1
b00111011 $2
b01100010 $4
b01000110 $5
b00001001 $6
b01110100 $7
b00100100 $8
b00011010 $9
b01001101 $:
b01111001 $;
b00011011 $<
b01101100 $=
b00111100 $>
b01010111 $?
b00000111 $@
b00101101 $A
b01110011 $B
b00111101 $C
b00100100 $D
b00001110 $E
b00000101 $F
b01001111 $G
b00001011 $H
b01001101 $I
b01010010 $J
b00001001 $K
b01101011 $L
b00000101 $M
b00010001 $N
b00001110 $O
b01111010 $P
b01101100 $Q
b00000011 $R
b00010011 $S
b01110100 $T
b01010011 $U
b00111000 $V
b00111100 $W
b01111110 $Y
b01001011 $Z
b01001001 $[
b00010001 "=
b00010100 ">
b01010000 "?
b01011011 "@
b01100001 "A
b00011001 "B
b01011110 "C
b00110101 "D
b01100001 "E
b01001001 "F
1"G
b010 "S
#26
0"G
1m
0$3
#31
1$$
b01100111 #C
1"G
b00001 #/
#36
0"G
0m
#41
b00100001 #C
1"G
b00010 #/
b00001011 #B
#46
0"G
#51
b01011011 #C
b00101011 #G
1"G
b00011 #/
b00010000 #B
#56
0"G
#61
b01010110 #C
b01010001 #F
b00010001 #G
1"G
b00100 #/
b00001111 #B
#66
0"G
#71
b00001011 #C
b01010011 #E
b00001010 #F
b01101111 #G
1"G
b00101 #/
b00011111 #B
#76
0"G
#81
b01100011 #C
b01111000 #D
b00010110 #E
b01001000 #F
b00101011 #G
1"G
b00110 #/
b00001111 #B
#86
0"G
#91
b01001111 #C
b00101110 #D
b01100001 #E
b01010110 #F
b01110010 #G
1"G
b00000101 #I
b00111 #/
b00010100 #B
#96
0"G
#101
b01111101 #C
b01110011 #D
b01101100 #E
b01010100 #F
b00000111 #G
1"G
b00011000 #H
b00100011 #I
b01000 #/
b01100011 #B
#106
0"G
#111
b00000000 #C
b00111000 #D
b00000011 #E
b00011010 #F
b01010011 #G
1"G
b01100001 #H
b00110111 #I
b01001 #/
b00101000 #B
#116
0"G
#121
b01011111 #D
b00111111 #E
b00010111 #F
b00001011 #G
1"G
b01110101 #H
b01011110 #I
b01010 #/
b00000000 #B
#126
0"G
#131
b00000001 #D
b01001011 #E
b01100010 #F
b00000000 #G
1"G
b00111011 #H
b01101100 #I
b01011 #/
#136
0"G
#141
b01000010 #D
b01000111 #E
b00000000 #F
1"G
b01011101 #H
b01011110 #I
b01100 #/
#146
0"G
#151
b01010000 #D
b00000000 #E
1"G
b00101110 #H
b00111010 #I
b01101 #/
#156
0"G
#161
b00000000 #D
1"G
b01010001 #H
b00100101 #I
b01110 #/
#166
0"G
#171
1"G
b00101000 #H
b00000000 #I
b01111 #/
#176
0"G
#181
1"G
b00000000 #H
b10000 #/
#186
0"G
#191
1"G
b10001 #/
#196
0"G
#201
1"G
b10010 #/
#206
0"G
#211
1"G
b10011 #/
#216
0"G
#221
1"G
b10100 #/
#226
0"G
#231
1"G
b10101 #/
#236
0"G
#241
1#v
1"G
b10110 #/
#246
0"G
#251
0$$
0#v
1"G
b00000 #/
b001 "1
#256
b00000000 "
b00000000 #
b00000000 $
b00000000 %
b00000000 &
b00000000 (
b00000000 )
b00000000 *
b00000000 +
b00000000 ,
b00000000 -
b00000000 .
b00000000 /
b00000000 0
b00000000 1
b00000000 2
b00000000 3
b00000000 4
b00000000 5
b00000000 6
b00000000 7
b00000000 8
b00000000 9
b00000000 :
b00000000 ;
b00000000 <
b00000000 =
b00000000 >
b00000000 ?
b00000000 @
b00000000 A
b00000000 B
b00000000 C
b00000000 D
b00000000 E
b00000000 F
b00000000 G
b00000000 H
b00000000 I
b00000000 J
b00000000 K
b00000000 L
b00000000 M
b00000000 N
b00000000 O
b00000000 P
b00000000 Q
b00000000 R
b00000000 S
b00000000 T
b00000000 U
b00000000 V
b00000000 W
0"G
b00000000 #8
b00000000 #9
b00000000 #:
b00000000 #;
b00000000 #<
b00000000 #=
b00000000 #>
b00000000 #?
b00000000 #@
b00000000 #A
