test_run_dir/should_test_Weight_Buffer/Weight_Buffer.vcd
$date
2022-12-15T08:21+0000
$end
$version
0.2
$end
$comment

$end
$timescale 1ns  $end
$scope module Weight_Buffer $end
 $var wire 1 ! empty $end
 $var wire 4 " shift_ptr $end
 $var wire 8 # buffer_0_61 $end
 $var wire 8 $ buffer_0_60 $end
 $var wire 8 % buffer_0_63 $end
 $var wire 8 & buffer_0_62 $end
 $var wire 8 ' buffer_0_41 $end
 $var wire 8 ( buffer_0_40 $end
 $var wire 8 ) buffer_0_43 $end
 $var wire 8 * buffer_0_42 $end
 $var wire 8 + buffer_0_45 $end
 $var wire 8 , buffer_0_44 $end
 $var wire 8 - buffer_0_47 $end
 $var wire 8 . buffer_0_46 $end
 $var wire 8 / buffer_0_49 $end
 $var wire 8 0 buffer_0_48 $end
 $var wire 8 1 buffer_0_50 $end
 $var wire 8 2 buffer_0_52 $end
 $var wire 8 3 buffer_0_51 $end
 $var wire 8 4 buffer_0_54 $end
 $var wire 8 5 buffer_0_53 $end
 $var wire 8 6 buffer_0_56 $end
 $var wire 8 7 buffer_0_55 $end
 $var wire 1 8 io_ren $end
 $var wire 8 9 buffer_0_58 $end
 $var wire 8 : buffer_0_57 $end
 $var wire 8 ; buffer_0_59 $end
 $var wire 8 < buffer_0_21 $end
 $var wire 8 = buffer_0_20 $end
 $var wire 8 > buffer_0_23 $end
 $var wire 8 ? buffer_0_22 $end
 $var wire 8 @ buffer_0_25 $end
 $var wire 8 A buffer_0_24 $end
 $var wire 8 B buffer_0_27 $end
 $var wire 8 C buffer_0_26 $end
 $var wire 8 D buffer_0_29 $end
 $var wire 8 E buffer_0_28 $end
 $var wire 8 F buffer_0_30 $end
 $var wire 8 G buffer_0_32 $end
 $var wire 8 H buffer_0_31 $end
 $var wire 8 I buffer_0_34 $end
 $var wire 8 J buffer_0_33 $end
 $var wire 8 K buffer_0_36 $end
 $var wire 8 L buffer_0_35 $end
 $var wire 8 M buffer_0_38 $end
 $var wire 8 N buffer_0_37 $end
 $var wire 8 O buffer_0_39 $end
 $var wire 8 P buffer_0_10 $end
 $var wire 8 Q buffer_0_12 $end
 $var wire 8 R buffer_0_11 $end
 $var wire 8 S buffer_0_14 $end
 $var wire 8 T buffer_0_13 $end
 $var wire 8 U buffer_0_16 $end
 $var wire 8 V buffer_0_15 $end
 $var wire 8 W buffer_0_18 $end
 $var wire 8 X buffer_0_17 $end
 $var wire 8 Y buffer_0_19 $end
 $var wire 3 Z read_ptr $end
 $var wire 8 [ buffer_0_1 $end
 $var wire 8 \ buffer_0_0 $end
 $var wire 8 ] buffer_0_5 $end
 $var wire 8 ^ buffer_0_4 $end
 $var wire 8 _ buffer_0_3 $end
 $var wire 8 ` buffer_0_2 $end
 $var wire 8 a buffer_0_9 $end
 $var wire 8 b buffer_0_8 $end
 $var wire 8 c buffer_0_7 $end
 $var wire 8 d buffer_0_6 $end
 $var wire 8 e io_out_weight_7 $end
 $var wire 8 f io_out_weight_6 $end
 $var wire 8 g io_out_weight_5 $end
 $var wire 8 h io_out_weight_0 $end
 $var wire 8 i io_out_weight_4 $end
 $var wire 8 j io_out_weight_3 $end
 $var wire 8 k io_out_weight_2 $end
 $var wire 8 l io_out_weight_1 $end
 $var wire 1 m io_isempty $end
 $var wire 8 n buffer_1_0 $end
 $var wire 8 o buffer_1_4 $end
 $var wire 8 p buffer_1_3 $end
 $var wire 8 q buffer_1_2 $end
 $var wire 8 r buffer_1_1 $end
 $var wire 8 s buffer_1_8 $end
 $var wire 8 t buffer_1_7 $end
 $var wire 8 u buffer_1_6 $end
 $var wire 8 v buffer_1_5 $end
 $var wire 8 w buffer_1_9 $end
 $var wire 1 x clock $end
 $var wire 1 y reset $end
 $var wire 8 z buffer_2_3 $end
 $var wire 8 { buffer_2_2 $end
 $var wire 8 | buffer_2_1 $end
 $var wire 8 } buffer_2_0 $end
 $var wire 8 ~ buffer_2_7 $end
 $var wire 8 "! buffer_2_6 $end
 $var wire 8 "" buffer_2_5 $end
 $var wire 8 "# buffer_2_4 $end
 $var wire 8 "$ buffer_2_9 $end
 $var wire 8 "% buffer_2_8 $end
 $var wire 1 "& io_out_shift $end
 $var wire 3 "' write_ptr $end
 $var wire 8 "( buffer_3_2 $end
 $var wire 8 ") buffer_3_1 $end
 $var wire 8 "* buffer_3_0 $end
 $var wire 8 "+ buffer_3_6 $end
 $var wire 8 ", buffer_3_5 $end
 $var wire 8 "- buffer_3_4 $end
 $var wire 8 ". buffer_3_3 $end
 $var wire 8 "/ buffer_3_9 $end
 $var wire 8 "0 buffer_3_8 $end
 $var wire 8 "1 buffer_3_7 $end
 $var wire 1 "2 full $end
 $var wire 8 "3 buffer_3_54 $end
 $var wire 8 "4 buffer_3_55 $end
 $var wire 8 "5 buffer_3_52 $end
 $var wire 8 "6 buffer_3_53 $end
 $var wire 8 "7 buffer_3_58 $end
 $var wire 8 "8 buffer_3_59 $end
 $var wire 8 "9 buffer_3_56 $end
 $var wire 8 ": buffer_3_57 $end
 $var wire 8 "; buffer_3_50 $end
 $var wire 8 "< buffer_3_51 $end
 $var wire 8 "= buffer_3_63 $end
 $var wire 8 "> buffer_3_61 $end
 $var wire 8 "? buffer_3_62 $end
 $var wire 8 "@ buffer_3_60 $end
 $var wire 8 "A buffer_3_32 $end
 $var wire 8 "B buffer_3_33 $end
 $var wire 8 "C buffer_3_30 $end
 $var wire 8 "D buffer_3_31 $end
 $var wire 8 "E buffer_3_36 $end
 $var wire 8 "F buffer_3_37 $end
 $var wire 8 "G buffer_3_34 $end
 $var wire 8 "H buffer_3_35 $end
 $var wire 8 "I buffer_3_38 $end
 $var wire 8 "J buffer_3_39 $end
 $var wire 8 "K buffer_3_43 $end
 $var wire 8 "L buffer_3_44 $end
 $var wire 8 "M buffer_3_41 $end
 $var wire 8 "N buffer_3_42 $end
 $var wire 8 "O buffer_3_47 $end
 $var wire 8 "P buffer_3_48 $end
 $var wire 8 "Q buffer_3_45 $end
 $var wire 8 "R buffer_3_46 $end
 $var wire 8 "S buffer_3_40 $end
 $var wire 8 "T buffer_3_49 $end
 $var wire 8 "U buffer_3_10 $end
 $var wire 8 "V buffer_3_11 $end
 $var wire 8 "W buffer_3_14 $end
 $var wire 8 "X buffer_3_15 $end
 $var wire 8 "Y buffer_3_12 $end
 $var wire 8 "Z buffer_3_13 $end
 $var wire 8 "[ buffer_3_18 $end
 $var wire 8 "\ buffer_3_19 $end
 $var wire 8 "] buffer_3_16 $end
 $var wire 8 "^ buffer_3_17 $end
 $var wire 8 "_ buffer_3_21 $end
 $var wire 8 "` buffer_3_22 $end
 $var wire 8 "a buffer_3_20 $end
 $var wire 8 "b buffer_3_25 $end
 $var wire 8 "c buffer_3_26 $end
 $var wire 8 "d buffer_3_23 $end
 $var wire 8 "e buffer_3_24 $end
 $var wire 8 "f buffer_3_29 $end
 $var wire 8 "g buffer_3_27 $end
 $var wire 8 "h buffer_3_28 $end
 $var wire 8 "i io_in_weight_x_9 $end
 $var wire 8 "j io_in_weight_x_7 $end
 $var wire 8 "k io_in_weight_x_8 $end
 $var wire 8 "l io_in_weight_x_5 $end
 $var wire 8 "m io_in_weight_x_6 $end
 $var wire 8 "n io_in_weight_x_3 $end
 $var wire 8 "o io_in_weight_x_4 $end
 $var wire 8 "p io_in_weight_x_1 $end
 $var wire 8 "q io_in_weight_x_2 $end
 $var wire 8 "r io_in_weight_x_0 $end
 $var wire 8 "s buffer_2_63 $end
 $var wire 8 "t buffer_2_62 $end
 $var wire 8 "u buffer_2_61 $end
 $var wire 8 "v buffer_2_60 $end
 $var wire 8 "w buffer_2_41 $end
 $var wire 8 "x buffer_2_40 $end
 $var wire 8 "y buffer_2_43 $end
 $var wire 8 "z buffer_2_42 $end
 $var wire 8 "{ buffer_2_45 $end
 $var wire 8 "| buffer_2_44 $end
 $var wire 8 "} buffer_2_47 $end
 $var wire 8 "~ buffer_2_46 $end
 $var wire 8 #! buffer_2_49 $end
 $var wire 8 #" buffer_2_48 $end
 $var wire 8 ## buffer_2_52 $end
 $var wire 8 #$ buffer_2_51 $end
 $var wire 8 #% buffer_2_54 $end
 $var wire 8 #& buffer_2_53 $end
 $var wire 8 #' buffer_2_56 $end
 $var wire 8 #( buffer_2_55 $end
 $var wire 8 #) buffer_2_58 $end
 $var wire 8 #* buffer_2_57 $end
 $var wire 8 #+ buffer_2_50 $end
 $var wire 8 #, buffer_2_59 $end
 $var wire 8 #- buffer_2_21 $end
 $var wire 8 #. buffer_2_20 $end
 $var wire 8 #/ buffer_2_23 $end
 $var wire 8 #0 buffer_2_22 $end
 $var wire 8 #1 buffer_2_25 $end
 $var wire 8 #2 buffer_2_24 $end
 $var wire 8 #3 buffer_2_27 $end
 $var wire 8 #4 buffer_2_26 $end
 $var wire 8 #5 buffer_2_29 $end
 $var wire 8 #6 buffer_2_28 $end
 $var wire 8 #7 buffer_2_30 $end
 $var wire 8 #8 buffer_2_32 $end
 $var wire 8 #9 buffer_2_31 $end
 $var wire 8 #: buffer_2_34 $end
 $var wire 8 #; buffer_2_33 $end
 $var wire 8 #< buffer_2_36 $end
 $var wire 8 #= buffer_2_35 $end
 $var wire 8 #> buffer_2_38 $end
 $var wire 8 #? buffer_2_37 $end
 $var wire 8 #@ buffer_2_39 $end
 $var wire 1 #A io_isdone $end
 $var wire 8 #B buffer_2_10 $end
 $var wire 8 #C buffer_2_12 $end
 $var wire 8 #D buffer_2_11 $end
 $var wire 8 #E buffer_2_14 $end
 $var wire 8 #F buffer_2_13 $end
 $var wire 8 #G buffer_2_16 $end
 $var wire 8 #H buffer_2_15 $end
 $var wire 8 #I buffer_2_18 $end
 $var wire 8 #J buffer_2_17 $end
 $var wire 8 #K buffer_2_19 $end
 $var wire 8 #L io_in_weight_x_61 $end
 $var wire 8 #M io_in_weight_x_62 $end
 $var wire 8 #N io_in_weight_x_63 $end
 $var wire 8 #O io_in_weight_x_60 $end
 $var wire 8 #P io_in_weight_x_50 $end
 $var wire 8 #Q io_in_weight_x_51 $end
 $var wire 8 #R io_in_weight_x_52 $end
 $var wire 8 #S io_in_weight_x_53 $end
 $var wire 8 #T io_in_weight_x_54 $end
 $var wire 8 #U io_in_weight_x_55 $end
 $var wire 8 #V io_in_weight_x_56 $end
 $var wire 8 #W io_in_weight_x_57 $end
 $var wire 1 #X io_isfull $end
 $var wire 8 #Y io_in_weight_x_58 $end
 $var wire 8 #Z io_in_weight_x_59 $end
 $var wire 8 #[ io_in_weight_x_40 $end
 $var wire 8 #\ io_in_weight_x_41 $end
 $var wire 8 #] io_in_weight_x_42 $end
 $var wire 8 #^ io_in_weight_x_43 $end
 $var wire 8 #_ io_in_weight_x_44 $end
 $var wire 8 #` io_in_weight_x_45 $end
 $var wire 8 #a io_in_weight_x_46 $end
 $var wire 8 #b io_in_weight_x_47 $end
 $var wire 8 #c io_in_weight_x_48 $end
 $var wire 8 #d io_in_weight_x_49 $end
 $var wire 8 #e io_in_weight_x_30 $end
 $var wire 8 #f io_in_weight_x_31 $end
 $var wire 8 #g io_in_weight_x_32 $end
 $var wire 8 #h io_in_weight_x_33 $end
 $var wire 8 #i io_in_weight_x_34 $end
 $var wire 8 #j io_in_weight_x_35 $end
 $var wire 8 #k io_in_weight_x_36 $end
 $var wire 8 #l io_in_weight_x_37 $end
 $var wire 8 #m io_in_weight_x_38 $end
 $var wire 8 #n io_in_weight_x_39 $end
 $var wire 8 #o io_in_weight_x_20 $end
 $var wire 8 #p io_in_weight_x_21 $end
 $var wire 8 #q io_in_weight_x_22 $end
 $var wire 8 #r io_in_weight_x_23 $end
 $var wire 8 #s io_in_weight_x_24 $end
 $var wire 8 #t io_in_weight_x_25 $end
 $var wire 8 #u io_in_weight_x_26 $end
 $var wire 8 #v io_in_weight_x_27 $end
 $var wire 8 #w io_in_weight_x_28 $end
 $var wire 8 #x io_in_weight_x_29 $end
 $var wire 8 #y io_in_weight_x_10 $end
 $var wire 8 #z io_in_weight_x_11 $end
 $var wire 8 #{ io_in_weight_x_12 $end
 $var wire 8 #| io_in_weight_x_13 $end
 $var wire 8 #} io_in_weight_x_14 $end
 $var wire 8 #~ io_in_weight_x_15 $end
 $var wire 8 $! io_in_weight_x_16 $end
 $var wire 8 $" io_in_weight_x_17 $end
 $var wire 8 $# io_in_weight_x_18 $end
 $var wire 8 $$ io_in_weight_x_19 $end
 $var wire 8 $% buffer_1_51 $end
 $var wire 8 $& buffer_1_50 $end
 $var wire 8 $' buffer_1_53 $end
 $var wire 8 $( buffer_1_52 $end
 $var wire 8 $) buffer_1_55 $end
 $var wire 8 $* buffer_1_54 $end
 $var wire 8 $+ buffer_1_57 $end
 $var wire 8 $, buffer_1_56 $end
 $var wire 8 $- buffer_1_59 $end
 $var wire 8 $. buffer_1_58 $end
 $var wire 8 $/ buffer_1_62 $end
 $var wire 8 $0 buffer_1_61 $end
 $var wire 8 $1 buffer_1_63 $end
 $var wire 8 $2 buffer_1_60 $end
 $var wire 1 $3 io_wen $end
 $var wire 8 $4 buffer_1_31 $end
 $var wire 8 $5 buffer_1_30 $end
 $var wire 8 $6 buffer_1_33 $end
 $var wire 8 $7 buffer_1_32 $end
 $var wire 8 $8 buffer_1_35 $end
 $var wire 8 $9 buffer_1_34 $end
 $var wire 8 $: buffer_1_37 $end
 $var wire 8 $; buffer_1_36 $end
 $var wire 8 $< buffer_1_39 $end
 $var wire 8 $= buffer_1_38 $end
 $var wire 8 $> buffer_1_40 $end
 $var wire 8 $? buffer_1_42 $end
 $var wire 8 $@ buffer_1_41 $end
 $var wire 8 $A buffer_1_44 $end
 $var wire 8 $B buffer_1_43 $end
 $var wire 8 $C buffer_1_46 $end
 $var wire 8 $D buffer_1_45 $end
 $var wire 8 $E buffer_1_48 $end
 $var wire 8 $F buffer_1_47 $end
 $var wire 8 $G buffer_1_49 $end
 $var wire 8 $H buffer_1_11 $end
 $var wire 8 $I buffer_1_10 $end
 $var wire 8 $J buffer_1_13 $end
 $var wire 8 $K buffer_1_12 $end
 $var wire 8 $L buffer_1_15 $end
 $var wire 8 $M buffer_1_14 $end
 $var wire 8 $N buffer_1_17 $end
 $var wire 8 $O buffer_1_16 $end
 $var wire 8 $P buffer_1_19 $end
 $var wire 8 $Q buffer_1_18 $end
 $var wire 8 $R buffer_1_20 $end
 $var wire 8 $S buffer_1_22 $end
 $var wire 8 $T buffer_1_21 $end
 $var wire 8 $U buffer_1_24 $end
 $var wire 8 $V buffer_1_23 $end
 $var wire 8 $W buffer_1_26 $end
 $var wire 8 $X buffer_1_25 $end
 $var wire 8 $Y buffer_1_28 $end
 $var wire 8 $Z buffer_1_27 $end
 $var wire 8 $[ buffer_1_29 $end
$upscope $end
$enddefinitions $end
$dumpvars
b00000000 k
b00000000 j
b00000000 l
b00000000 g
b00000000 f
b00000000 i
b00000000 h
08
b00000000 c
b00000000 b
b00000000 e
b00000000 d
b00000000 _
b00000000 ^
b00000000 a
b00000000 `
b00000000 {
b00000000 z
b00000000 }
b00000000 |
b00000000 w
b00000000 v
b00000000 s
b00000000 r
b00000000 u
b00000000 t
b00000000 o
b00000000 n
b00000000 q
b00000000 p
b00000000 K
b00000000 J
b0000 "
b00000000 M
b00000000 L
b00000000 G
b00000000 F
b00000000 I
b00000000 H
b00000000 C
b00000000 B
b00000000 E
b00000000 D
b00000000 ?
b00000000 >
b00000000 A
b00000000 @
b00000000 [
b00000000 ]
b00000000 \
b00000000 W
b00000000 V
b00000000 Y
b00000000 X
b00000000 S
b00000000 R
b00000000 U
b00000000 T
b00000000 O
0m
b00000000 N
b00000000 Q
b00000000 P
0x
0y
b00000000 ~
0"&
0"2
b00000000 "g
b00000000 #H
b00000000 $)
b00000000 "f
b00000000 #G
b00000000 $(
b00000000 "e
b00000000 #F
b00000000 $'
b00000000 "d
b00000000 #E
b00000000 $&
b00000000 "k
b00000000 #L
b00000000 $-
b00000000 "j
b00000000 #K
b00000000 $,
b00000000 "i
b00000000 #J
b00000000 $+
b00000000 "h
b00000000 #I
b00000000 $*
b00000000 "o
b00000000 #P
b00000000 $1
b00000000 "n
b00000000 #O
b00000000 $0
b00000000 "m
b00000000 #N
b00000000 $/
b00000000 "l
b00000000 #M
b00000000 $.
b00000000 "s
b00000000 #T
b00000000 $5
b00000000 "r
b00000000 #S
b00000000 $4
b00000000 "q
b00000000 #R
b00000000 "p
b00000000 #Q
b00000000 $2
b00000000 "w
b00000000 $9
b00000000 "v
b00000000 #W
b00000000 $8
b00000000 "u
b00000000 #V
b00000000 $7
b00000000 "t
b00000000 #U
b00000000 $6
b00000000 "{
b00000000 #\
b00000000 $=
b00000000 "z
b00000000 #[
b00000000 $<
b00000000 "y
b00000000 #Z
b00000000 $;
b00000000 "x
b00000000 #Y
b00000000 $:
b00000000 #`
b00000000 $A
b00000000 "~
b00000000 #_
b00000000 $@
b00000000 "}
b00000000 #^
b00000000 $?
b00000000 "|
b00000000 #]
b00000000 $>
b00000000 #d
b00000000 $E
b00000000 #c
b00000000 $D
b00000000 #b
b00000000 $C
b00000000 #a
b00000000 $B
b00000000 #h
b00000000 $I
b00000000 #g
b00000000 $H
b00000000 #f
b00000000 $G
b00000000 #e
b00000000 $F
b00000000 #l
b00000000 $M
b00000000 #k
b00000000 $L
b00000000 #j
b00000000 $K
b00000000 #i
b00000000 $J
b00000000 #p
b00000000 $Q
b00000000 #o
b00000000 $P
b00000000 #n
b00000000 $O
b00000000 #m
b00000000 $N
b00000000 #t
b00000000 $U
b00000000 #s
b00000000 $T
0#A
b00000000 #r
b00000000 $S
b00000000 #q
b00000000 $R
b00000000 #x
b00000000 $Y
b00000000 #w
b00000000 $X
b00000000 #v
b00000000 $W
b00000000 #u
b00000000 $V
b00000000 #|
b00000000 #{
b00000000 #z
b00000000 $[
b00000000 #y
b00000000 $Z
b00000000 #~
b00000000 #}
b000 Z
0$3
0#X
b00000000 "#
b00000000 ""
b00000000 "!
b00000000 "%
b00000000 "$
b00000000 "+
b00000000 "*
b00000000 ")
b00000000 "(
b00000000 "/
b00000000 ".
b00000000 "-
b00000000 ",
b00000000 "3
b00000000 "1
b00000000 "0
b00000000 "7
b00000000 "6
b00000000 "5
b00000000 "4
b00000000 ";
b00000000 ":
b00000000 "9
b00000000 "8
b00000000 "?
b00000000 ">
b00000000 "=
b00000000 "<
b00000000 "C
b00000000 #$
b00000000 "B
b00000000 ##
b00000000 "A
b00000000 #"
b00000000 "@
b00000000 #!
b00000000 "G
b00000000 #(
b00000000 "F
b00000000 #'
b00000000 "E
b00000000 #&
b00000000 "D
b00000000 #%
b00000000 "K
b00000000 #,
b00000000 "J
b00000000 #+
b00000000 "I
b00000000 #*
b00000000 "H
b00000000 #)
b00000000 "O
b00000000 #0
b00000000 "N
b00000000 #/
b00000000 "M
b00000000 #.
b00000000 "L
b00000000 #-
b00000000 "S
b00000000 #4
b00000000 "R
b00000000 #3
b00000000 "Q
b00000000 #2
b00000000 "P
b00000000 #1
b00000000 "W
b00000000 #8
b00000000 "V
b00000000 #7
b00000000 "U
b00000000 #6
b00000000 "T
b00000000 #5
b00000000 "[
b00000000 #<
b00000000 "Z
b00000000 #;
b00000000 "Y
b00000000 #:
b00000000 "X
b00000000 #9
b00000000 "_
b00000000 #@
b00000000 $!
b00000000 "^
b00000000 #?
b00000000 "]
b00000000 #>
b00000000 "\
b00000000 #=
b00000000 "c
b00000000 #D
b00000000 $%
b00000000 "b
b00000000 #C
b00000000 $$
b00000000 "a
b00000000 #B
b00000000 $#
b00000000 "`
b00000000 $"
b00000000 +
b00000000 *
b00000000 -
b00000000 ,
b00000000 '
b00000000 &
b00000000 )
b00000000 (
b00000000 #
b00000000 %
b00000000 $
b00000000 ;
b000 "'
b00000000 :
b00000000 =
b00000000 <
b00000000 7
b00000000 6
b00000000 9
b00000000 3
b00000000 2
b00000000 5
b00000000 4
b00000000 /
b00000000 .
b00000000 1
b00000000 0
0!
$end
#0
1!
1"&
1y
1m
1#A
#1
b1000 "
0"&
1x
0#A
#6
b00001000 $$
b00111110 "i
b01110001 "j
b00000111 "k
b01110011 #L
b01101011 "l
b01000110 #M
b00110100 "m
b00000100 #N
b01111110 "n
b01001111 #O
b01000000 "o
b00101100 #P
b00101110 "p
b01101000 #Q
1$3
b00100010 "q
b00100110 #R
b00111010 "r
b01001000 #S
b00111110 #T
b01011101 #U
b01011111 #V
b01110001 #W
b00100001 #Y
b00100100 #Z
b01001111 #[
b00011100 #\
b01000011 #]
b01111000 #^
b01110011 #_
b01111111 #`
b00001010 #a
b00010010 #b
b00111101 #c
b00010110 #d
b00111010 #e
b01111001 #f
b00100100 #g
b00100111 #h
b00101000 #i
b01011010 #j
b01001110 #k
b01100001 #l
b01011001 #m
b00100100 #n
b00100001 #o
b00000001 #p
b00000001 #q
b01110110 #r
b01001010 #s
b01101101 #t
b00010101 #u
b00100011 #v
b01011000 #w
b01101001 #x
b01101101 #y
b01001111 #z
b01011001 #{
b00010110 #|
b00001100 #}
b00010110 #~
0x
0y
b00111000 $!
b00011111 $"
b01011110 $#
#11
0!
b01110011 #
b01001111 $
b00000100 %
b01000110 &
b00011100 '
b01001111 (
b01111000 )
b01000011 *
b01111111 +
b01110011 ,
b00010010 -
b00001010 .
b00010110 /
b00111101 0
b00101100 1
b00100110 2
b01101000 3
b00111110 4
b01001000 5
b01011111 6
b01011101 7
b00100001 9
b01110001 :
b00100100 ;
b00000001 <
b00100001 =
b01110110 >
b00000001 ?
b01101101 @
b01001010 A
b00100011 B
b00010101 C
b01101001 D
b01011000 E
b001 "'
b00111010 F
b00100100 G
b01111001 H
b00101000 I
b00100111 J
b01001110 K
b01011010 L
b01011001 M
b01100001 N
b00100100 O
b01101101 P
b01011001 Q
b01001111 R
b00001100 S
b00010110 T
b00111000 U
b00010110 V
b01011110 W
b00011111 X
b00001000 Y
b00101110 [
b00111010 \
b01101011 ]
b01000000 ^
b01111110 _
b00100010 `
b00111110 a
b00000111 b
b01110001 c
b00110100 d
0m
1x
#16
b00000111 $$
b01001100 "i
b01100001 "j
b01110111 "k
b00100000 #L
b00111100 "l
b01001011 #M
b00101101 "m
b01111001 #N
b01010000 "n
b01011111 #O
b01110110 "o
b01011001 #P
b00010010 "p
b00100101 #Q
b00001100 "q
b01101100 #R
b01110010 "r
b01101000 #S
b01101000 #T
b01101101 #U
b01001110 #V
b00001010 #W
b00000011 #Y
b01010110 #Z
b00011100 #[
b00110001 #\
b01010101 #]
b00000000 #^
b01010001 #_
b00101100 #`
b01101100 #a
b00011111 #b
b01101111 #c
b01011110 #d
b00011111 #e
b00011110 #f
b00010001 #g
b01110011 #h
b00011001 #i
b00111001 #j
b01011000 #k
b00010110 #l
b00000011 #m
b00101001 #n
b01001110 #o
b00110011 #p
b00001110 #q
b00111001 #r
b01100010 #s
b00010011 #t
b00100100 #u
b01101111 #v
b01100100 #w
b00010010 #x
b00111100 #y
b01111100 #z
b00110000 #{
b00010100 #|
b01000110 #}
b01101100 #~
0x
b00001111 $!
b00111101 $"
b01110000 $#
#21
b00100101 $%
b01011001 $&
b01101000 $'
b01101100 $(
b01101101 $)
b01101000 $*
b00001010 $+
b01001110 $,
b01010110 $-
b00000011 $.
b01001011 $/
b00100000 $0
b01111001 $1
b01011111 $2
b00011110 $4
b00011111 $5
b01110011 $6
b00010001 $7
b00111001 $8
b00011001 $9
b00010110 $:
b01011000 $;
b00101001 $<
b00000011 $=
b00011100 $>
b01010101 $?
b00110001 $@
b01010001 $A
b01101100 $C
b00101100 $D
b01101111 $E
b00011111 $F
b01011110 $G
b01111100 $H
b00111100 $I
b00010100 $J
b00110000 $K
b01101100 $L
b01000110 $M
b00111101 $N
b00001111 $O
b00000111 $P
b01110000 $Q
b01001110 $R
b00001110 $S
b00110011 $T
b01100010 $U
b00111001 $V
b00100100 $W
b00010011 $X
b01100100 $Y
b01101111 $Z
b00010010 $[
b010 "'
b01110010 n
b01110110 o
b01010000 p
b00001100 q
b00010010 r
b01110111 s
b01100001 t
b00101101 u
b00111100 v
b01001100 w
1x
#26
b00100101 $$
b00011100 "i
b00000011 "j
b00001100 "k
b00011011 #L
b01010010 "l
b01111110 #M
b00101100 "m
b01001011 #N
b00111010 "n
b01000101 #O
b00100000 "o
b00001101 #P
b00010110 "p
b00111000 #Q
b00011001 "q
b01101011 #R
b00001101 "r
b01100011 #S
b00100100 #T
b00011011 #U
b01101010 #V
b00110110 #W
b01010011 #Y
b01111110 #Z
b01011110 #[
b00101001 #\
b00101110 #]
b00110010 #^
b00100011 #_
b01110111 #`
b00000110 #a
b00110000 #b
b01100011 #c
b01101011 #d
b01100100 #e
b00111111 #g
b01001111 #h
b00001000 #i
b00100000 #j
b01100100 #k
b00110000 #l
b00011111 #m
b01101000 #n
b00011100 #o
b01001101 #p
b01100000 #q
b01000000 #r
b00101011 #s
b00010111 #t
b00100011 #u
b01011011 #v
b00100011 #w
b01111110 #x
b00101111 #y
b00101101 #z
b00000010 #{
b00011110 #|
b01101100 #}
b01000110 #~
0x
b00100001 $!
b00011000 $"
b00111001 $#
#31
b00000010 #C
b00101101 #D
b01101100 #E
b00011110 #F
b00100001 #G
b01000110 #H
b00111001 #I
b00011000 #J
b00100101 #K
b01001011 "s
b01111110 "t
b00011011 "u
b01000101 "v
b00101001 "w
b01011110 "x
b00110010 "y
b00101110 "z
b01110111 "{
b00100011 "|
b00110000 "}
b00000110 "~
b00101100 "!
b01010010 ""
b00100000 "#
b00011100 "$
b00001100 "%
b011 "'
b01101011 #!
b01100011 #"
b01101011 ##
b00111000 #$
b00100100 #%
b01100011 #&
b01101010 #'
b00011011 #(
b01010011 #)
b00110110 #*
b00001101 #+
b01111110 #,
b01001101 #-
b00011100 #.
b01000000 #/
b01100000 #0
b00010111 #1
b00101011 #2
b01011011 #3
b00100011 #4
b01111110 #5
b00100011 #6
b01100100 #7
b00111111 #8
b00011110 #9
b00001000 #:
1x
b01001111 #;
b01100100 #<
b00111010 z
b00100000 #=
b00011001 {
b00011111 #>
b00010110 |
b00110000 #?
b00001101 }
b01101000 #@
b00000011 ~
b00101111 #B
#36
b00011111 $$
b01001001 "i
b01000101 "j
b00100001 "k
b00100011 #L
b01110100 "l
b01101101 #M
b01000100 "m
b01111001 #N
b01010000 "n
b01010100 #O
b00011111 "o
b01001110 #P
b01010011 "p
b00010011 #Q
b01101100 "q
b01101001 #R
b00010100 "r
b01011100 #S
b01101010 #T
b01011011 #U
b00100100 #V
b01011110 #W
b00110001 #Y
b01000011 #Z
b00101111 #[
b01100000 #\
b01110111 #]
b01010110 #^
b00110011 #_
b01001111 #`
b01101000 #a
b01000011 #b
b01000011 #c
b01100001 #d
b00100000 #e
b01111001 #f
b01111010 #g
b00111000 #h
b01000111 #i
b01100010 #j
b01010111 #k
b00111111 #l
b01011011 #m
b00101011 #n
b00101110 #o
b01001001 #p
b00010000 #q
b01011101 #r
b01101101 #s
b01110011 #t
b01011110 #u
b00101001 #v
b01000010 #w
b00011011 #x
b00110010 #y
b01011011 #z
b00101100 #{
b01010010 #|
b01111100 #}
b00001100 #~
0x
b00001100 $!
b01100010 $"
b00011111 $#
#41
b01110011 "b
b01011110 "c
b01011101 "d
b01101101 "e
b00011011 "f
b00101001 "g
b01000010 "h
1#X
b100 "'
b01101100 "(
b01010011 ")
b00010100 "*
b01000100 "+
b01110100 ",
b00011111 "-
b01010000 ".
b01001001 "/
b00100001 "0
b01000101 "1
1"2
b01101010 "3
b01011011 "4
b01101001 "5
b01011100 "6
b00110001 "7
b01000011 "8
b00100100 "9
b01011110 ":
b01001110 ";
b00010011 "<
b01111001 "=
b00100011 ">
b01101101 "?
b01010100 "@
b01111010 "A
b00111000 "B
b00100000 "C
b01111001 "D
b01010111 "E
b00111111 "F
b01000111 "G
b01100010 "H
b01011011 "I
b00101011 "J
b01010110 "K
b00110011 "L
b01100000 "M
b01110111 "N
b01000011 "O
b01000011 "P
b01001111 "Q
b01101000 "R
b00101111 "S
b01100001 "T
b00110010 "U
b01011011 "V
b01111100 "W
b00001100 "X
b00101100 "Y
1x
b01010010 "Z
b00011111 "[
b00011111 "\
b00001100 "]
b01100010 "^
b01001001 "_
b00010000 "`
b00101110 "a
#46
18
0x
0$3
#51
b0111 "
1"&
b00000100 e
b01000110 f
b01110011 g
b01011111 h
1x
b01001111 i
b00100100 j
b00100001 k
b01110001 l
#56
08
0x
#61
b0110 "
b01011101 e
b00111110 f
b01001000 g
b00111101 h
1x
b00100110 i
b01101000 j
b00101100 k
b00010110 l
#66
0x
#71
b0101 "
b00010010 e
b00001010 f
b01111111 g
b01001111 h
1x
b01110011 i
b01111000 j
b01000011 k
b00011100 l
#76
0x
#81
b0100 "
b00100100 e
b01011001 f
b01100001 g
b00100100 h
1x
b01001110 i
b01011010 j
b00101000 k
b00100111 l
#86
0x
#91
b0011 "
b01111001 e
b00111010 f
b01101001 g
b01001010 h
1x
b01011000 i
b00100011 j
b00010101 k
b01101101 l
#96
0x
#101
b0010 "
b01110110 e
b00000001 f
b00000001 g
b00111000 h
1x
b00100001 i
b00001000 j
b01011110 k
b00011111 l
#106
0x
#111
b0001 "
b00010110 e
b00001100 f
b00010110 g
b00000111 h
1x
b01011001 i
b01001111 j
b01101101 k
b00111110 l
#116
0x
#121
b0000 "
b01110001 e
b00110100 f
b01101011 g
b00111010 h
1x
b01000000 i
b01111110 j
b00100010 k
b00101110 l
1#A
#126
0x
#131
b1000 "
0"&
b00000000 e
b00000000 f
b00000000 g
b00000000 h
b00000000 i
b00000000 j
b00000000 k
b00000000 l
0"2
0#X
1x
b001 Z
0#A
